EESchema Schematic File Version 4
LIBS:voice1-cache
EELAYER 26 0
EELAYER END
$Descr A3 16535 11693
encoding utf-8
Sheet 1 1
Title ""
Date ""
Rev ""
Comp ""
Comment1 ""
Comment2 ""
Comment3 ""
Comment4 ""
$EndDescr
$Comp
L 74xx:74HC590 U12
U 1 1 5BD01DE2
P 4600 2050
AR Path="/5BD012B9/5BD01DE2" Ref="U12"  Part="1" 
AR Path="/5BD2AF95/5BD01DE2" Ref="U?"  Part="1" 
AR Path="/5BD01DE2" Ref="U12"  Part="1" 
F 0 "U12" H 4600 2928 50  0000 C CNN
F 1 "74HC590" H 4600 2837 50  0000 C CNN
F 2 "Package_DIP:DIP-16_W7.62mm" H 4600 2100 50  0001 C CNN
F 3 "https://assets.nexperia.com/documents/data-sheet/74HC590.pdf" H 4600 2100 50  0001 C CNN
	1    4600 2050
	1    0    0    -1  
$EndComp
Text Label 6100 2600 0    50   ~ 0
V1_SEL
$Comp
L 74xx:74LS574 U14
U 1 1 5BD01DEB
P 6850 2100
AR Path="/5BD012B9/5BD01DEB" Ref="U14"  Part="1" 
AR Path="/5BD2AF95/5BD01DEB" Ref="U?"  Part="1" 
AR Path="/5BD01DEB" Ref="U14"  Part="1" 
F 0 "U14" H 6850 3078 50  0000 C CNN
F 1 "74LS574" H 6850 2987 50  0000 C CNN
F 2 "Package_DIP:DIP-20_W7.62mm" H 6850 2100 50  0001 C CNN
F 3 "http://www.ti.com/lit/gpn/sn74LS574" H 6850 2100 50  0001 C CNN
	1    6850 2100
	1    0    0    -1  
$EndComp
Text Label 3450 2250 0    50   ~ 0
V1_SEL
$Comp
L 74xx:74LS574 U18
U 1 1 5BD01DF3
P 9250 2100
AR Path="/5BD012B9/5BD01DF3" Ref="U18"  Part="1" 
AR Path="/5BD2AF95/5BD01DF3" Ref="U?"  Part="1" 
AR Path="/5BD01DF3" Ref="U18"  Part="1" 
F 0 "U18" H 9250 3078 50  0000 C CNN
F 1 "74LS574" H 9250 2987 50  0000 C CNN
F 2 "Package_DIP:DIP-20_W7.62mm" H 9250 2100 50  0001 C CNN
F 3 "http://www.ti.com/lit/gpn/sn74LS574" H 9250 2100 50  0001 C CNN
	1    9250 2100
	1    0    0    -1  
$EndComp
Text Label 3450 1750 0    50   ~ 0
V1_SCLK
Text Label 2900 2400 2    50   ~ 0
V1_NSEG1_7
Text Label 2900 2300 2    50   ~ 0
V1_NSEG1_6
Text Label 2900 2200 2    50   ~ 0
V1_NSEG1_5
Text Label 2900 2100 2    50   ~ 0
V1_NSEG1_4
Text Label 2900 2000 2    50   ~ 0
V1_NSEG1_3
Text Label 2900 1900 2    50   ~ 0
V1_NSEG1_2
Text Label 2900 1800 2    50   ~ 0
V1_NSEG1_1
Text Label 2900 1700 2    50   ~ 0
V1_NSEG1_0
Wire Wire Line
	3450 1750 4000 1750
Wire Wire Line
	4000 1850 4000 1750
Connection ~ 4000 1750
Wire Wire Line
	4000 1850 4200 1850
Wire Wire Line
	4000 1750 4200 1750
Wire Wire Line
	4200 1550 4100 1550
$Comp
L power:GND #PWR0102
U 1 1 5BD01E6D
P 4100 3150
AR Path="/5BD012B9/5BD01E6D" Ref="#PWR0102"  Part="1" 
AR Path="/5BD2AF95/5BD01E6D" Ref="#PWR?"  Part="1" 
AR Path="/5BD01E6D" Ref="#PWR0102"  Part="1" 
F 0 "#PWR0102" H 4100 2900 50  0001 C CNN
F 1 "GND" H 4105 2977 50  0000 C CNN
F 2 "" H 4100 3150 50  0001 C CNN
F 3 "" H 4100 3150 50  0001 C CNN
	1    4100 3150
	1    0    0    -1  
$EndComp
Text Label 3450 2050 0    50   ~ 0
V1_RESET
Wire Wire Line
	3450 2050 4000 2050
Wire Wire Line
	3450 2250 4200 2250
Wire Wire Line
	2400 5350 2900 5350
Text Label 2900 5350 2    50   ~ 0
V2_BANK_A
Text Label 2900 5550 2    50   ~ 0
V2_BANK_B
Wire Wire Line
	2900 5550 2400 5550
Text Label 11850 7850 2    50   ~ 0
V1_SCLK
Text Label 8350 2500 0    50   ~ 0
V1_SLATCH
Text Label 11850 8150 2    50   ~ 0
V2_RESET
Text Notes 9350 2850 0    50   ~ 0
V1 audio data latch
Text Notes 6950 2850 0    50   ~ 0
V1 addr MSB latch
Text Notes 4500 2750 0    50   ~ 0
V1 addr LSB gen
Text Label 2900 5750 2    50   ~ 0
V2_BANK_C
Wire Wire Line
	2900 5750 2400 5750
$Comp
L AD7524:AD7524 U20
U 1 1 5BBC517B
P 10900 2050
AR Path="/5BD012B9/5BBC517B" Ref="U20"  Part="1" 
AR Path="/5BD2AF95/5BBC517B" Ref="U?"  Part="1" 
AR Path="/5BBC517B" Ref="U20"  Part="1" 
F 0 "U20" H 10900 2725 50  0000 C CNN
F 1 "AD7524" H 10900 2634 50  0000 C CNN
F 2 "Package_DIP:DIP-16_W7.62mm" H 10900 2050 50  0001 C CNN
F 3 "" H 10900 2050 50  0001 C CNN
	1    10900 2050
	1    0    0    -1  
$EndComp
Wire Wire Line
	10400 2600 10300 2600
Wire Wire Line
	9850 2500 10400 2500
Text Notes 11200 2800 0    50   ~ 0
V1 DAC
Text GLabel 8600 7100 2    50   Output ~ 0
SOUND_A16
Text GLabel 8600 7400 2    50   Output ~ 0
SOUND_A17
Text GLabel 5250 2250 2    50   Output ~ 0
SOUND_A7
Text GLabel 5250 2150 2    50   Output ~ 0
SOUND_A6
Text GLabel 5250 2050 2    50   Output ~ 0
SOUND_A5
Text GLabel 5250 1950 2    50   Output ~ 0
SOUND_A4
Text GLabel 5250 1850 2    50   Output ~ 0
SOUND_A3
Text GLabel 5250 1750 2    50   Output ~ 0
SOUND_A2
Text GLabel 5250 1650 2    50   Output ~ 0
SOUND_A1
Text GLabel 5250 1550 2    50   Output ~ 0
SOUND_A0
Text GLabel 7500 2300 2    50   Output ~ 0
SOUND_A15
Text GLabel 7500 2200 2    50   Output ~ 0
SOUND_A14
Text GLabel 7500 2100 2    50   Output ~ 0
SOUND_A13
Text GLabel 7500 2000 2    50   Output ~ 0
SOUND_A12
Text GLabel 7500 1900 2    50   Output ~ 0
SOUND_A11
Text GLabel 7500 1800 2    50   Output ~ 0
SOUND_A10
Text GLabel 7500 1700 2    50   Output ~ 0
SOUND_A9
Text GLabel 7500 1600 2    50   Output ~ 0
SOUND_A8
Text GLabel 8600 2300 0    50   Input ~ 0
SOUND_D7
Text GLabel 8600 2200 0    50   Input ~ 0
SOUND_D6
Text GLabel 8600 2100 0    50   Input ~ 0
SOUND_D5
Text GLabel 8600 2000 0    50   Input ~ 0
SOUND_D4
Text GLabel 8600 1900 0    50   Input ~ 0
SOUND_D3
Text GLabel 8600 1800 0    50   Input ~ 0
SOUND_D2
Text GLabel 8600 1700 0    50   Input ~ 0
SOUND_D1
Text GLabel 8600 1600 0    50   Input ~ 0
SOUND_D0
Wire Wire Line
	8600 2300 8750 2300
Wire Wire Line
	8750 2200 8600 2200
Wire Wire Line
	8600 2100 8750 2100
Wire Wire Line
	8750 2000 8600 2000
Wire Wire Line
	8600 1900 8750 1900
Wire Wire Line
	8750 1800 8600 1800
Wire Wire Line
	8600 1700 8750 1700
Wire Wire Line
	8750 1600 8600 1600
Wire Wire Line
	7350 2300 7500 2300
Wire Wire Line
	7500 2200 7350 2200
Wire Wire Line
	7350 2100 7500 2100
Wire Wire Line
	7500 2000 7350 2000
Wire Wire Line
	7350 1900 7500 1900
Wire Wire Line
	7500 1800 7350 1800
Wire Wire Line
	7350 1700 7500 1700
Wire Wire Line
	7500 1600 7350 1600
Wire Wire Line
	5000 1550 5250 1550
Wire Wire Line
	5250 1650 5000 1650
Wire Wire Line
	5000 1750 5250 1750
Wire Wire Line
	5250 1850 5000 1850
Wire Wire Line
	5000 1950 5250 1950
Wire Wire Line
	5250 2050 5000 2050
Wire Wire Line
	5000 2150 5250 2150
Wire Wire Line
	5250 2250 5000 2250
Text Label 6100 5800 0    50   ~ 0
V2_SEL
Text Label 10050 5500 2    50   ~ 0
V2_D7
Text Label 10050 5400 2    50   ~ 0
V2_D6
Text Label 10050 5300 2    50   ~ 0
V2_D5
Text Label 10050 5200 2    50   ~ 0
V2_D4
Text Label 10050 5100 2    50   ~ 0
V2_D3
Text Label 10050 5000 2    50   ~ 0
V2_D2
Text Label 10050 4900 2    50   ~ 0
V2_D1
Text Label 10050 4800 2    50   ~ 0
V2_D0
Text Label 2900 4150 2    50   ~ 0
V2_NSEG1_7
Text Label 2900 4050 2    50   ~ 0
V2_NSEG1_6
Text Label 2900 3950 2    50   ~ 0
V2_NSEG1_5
Text Label 2900 3850 2    50   ~ 0
V2_NSEG1_4
Text Label 2900 3750 2    50   ~ 0
V2_NSEG1_3
Text Label 2900 3650 2    50   ~ 0
V2_NSEG1_2
Text Label 2900 3550 2    50   ~ 0
V2_NSEG1_1
Text Label 2900 3450 2    50   ~ 0
V2_NSEG1_0
Wire Wire Line
	2400 1700 2900 1700
Wire Wire Line
	2400 1800 2900 1800
Wire Wire Line
	2400 1900 2900 1900
Wire Wire Line
	2400 4150 2900 4150
Wire Wire Line
	2400 4050 2900 4050
Wire Wire Line
	2400 3950 2900 3950
Wire Wire Line
	2400 3850 2900 3850
Wire Wire Line
	2400 3750 2900 3750
Wire Wire Line
	2400 3650 2900 3650
Wire Wire Line
	2400 3550 2900 3550
Wire Wire Line
	2400 3450 2900 3450
Wire Wire Line
	2400 2400 2900 2400
Wire Wire Line
	2400 2300 2900 2300
Wire Wire Line
	2400 2200 2900 2200
Wire Wire Line
	2400 2100 2900 2100
Wire Wire Line
	2400 2000 2900 2000
Text Label 5850 2300 0    50   ~ 0
V1_NSEG1_7
Text Label 5850 2200 0    50   ~ 0
V1_NSEG1_6
Text Label 5850 2100 0    50   ~ 0
V1_NSEG1_5
Text Label 5850 2000 0    50   ~ 0
V1_NSEG1_4
Text Label 5850 1900 0    50   ~ 0
V1_NSEG1_3
Text Label 5850 1800 0    50   ~ 0
V1_NSEG1_2
Text Label 5850 1700 0    50   ~ 0
V1_NSEG1_1
Text Label 5850 1600 0    50   ~ 0
V1_NSEG1_0
Wire Wire Line
	6350 1600 5850 1600
Wire Wire Line
	6350 1700 5850 1700
Wire Wire Line
	6350 1800 5850 1800
Wire Wire Line
	6350 2300 5850 2300
Wire Wire Line
	6350 2200 5850 2200
Wire Wire Line
	6350 2100 5850 2100
Wire Wire Line
	6350 2000 5850 2000
Wire Wire Line
	6350 1900 5850 1900
Text Label 5850 5500 0    50   ~ 0
V2_NSEG1_7
Text Label 5850 5400 0    50   ~ 0
V2_NSEG1_6
Text Label 5850 5300 0    50   ~ 0
V2_NSEG1_5
Text Label 5850 5200 0    50   ~ 0
V2_NSEG1_4
Text Label 5850 5100 0    50   ~ 0
V2_NSEG1_3
Text Label 5850 5000 0    50   ~ 0
V2_NSEG1_2
Text Label 5850 4900 0    50   ~ 0
V2_NSEG1_1
Text Label 5850 4800 0    50   ~ 0
V2_NSEG1_0
Wire Wire Line
	6350 5500 5850 5500
Wire Wire Line
	6350 5400 5850 5400
Wire Wire Line
	6350 5300 5850 5300
Wire Wire Line
	6350 5200 5850 5200
Wire Wire Line
	6350 5100 5850 5100
Wire Wire Line
	6350 5000 5850 5000
Wire Wire Line
	6350 4900 5850 4900
Wire Wire Line
	6350 4800 5850 4800
Text Label 9900 5700 0    50   ~ 0
V2_SCLK
Text Label 9850 2500 0    50   ~ 0
V1_SCLK
Wire Wire Line
	2400 5250 2900 5250
Text Label 2900 5250 2    50   ~ 0
V1_BANK_A
Text Label 2900 5450 2    50   ~ 0
V1_BANK_B
Wire Wire Line
	2900 5450 2400 5450
Text Label 11850 8350 2    50   ~ 0
V1_RESET
Text Label 2900 5650 2    50   ~ 0
V1_BANK_C
Wire Wire Line
	2900 5650 2400 5650
Text Label 11850 7950 2    50   ~ 0
V2_SCLK
$Comp
L 74xx:74LS257 U11
U 1 1 5C4088FA
P 8000 7700
F 0 "U11" H 8000 8778 50  0000 C CNN
F 1 "74LS257" H 8000 8687 50  0000 C CNN
F 2 "Package_DIP:DIP-16_W7.62mm" H 8000 7700 50  0001 C CNN
F 3 "http://www.ti.com/lit/gpn/sn74LS257" H 8000 7700 50  0001 C CNN
	1    8000 7700
	1    0    0    -1  
$EndComp
Wire Wire Line
	8500 7400 8600 7400
Wire Wire Line
	8600 7100 8500 7100
Wire Wire Line
	8750 2600 8650 2600
Text Label 6150 7000 2    50   ~ 0
V1_SLATCH
Wire Wire Line
	5750 7000 6150 7000
$Comp
L 74xx:74LS74 U5
U 1 1 5C99F023
P 3250 7400
F 0 "U5" H 3250 7878 50  0000 C CNN
F 1 "74LS74" H 3250 7787 50  0000 C CNN
F 2 "Package_DIP:DIP-14_W7.62mm" H 3250 7400 50  0001 C CNN
F 3 "74xx/74hc_hct74.pdf" H 3250 7400 50  0001 C CNN
	1    3250 7400
	1    0    0    -1  
$EndComp
Text Label 2800 7100 0    50   ~ 0
V1_OF
Wire Wire Line
	2800 7100 3250 7100
Text Label 5250 2450 2    50   ~ 0
V1_OF
Wire Wire Line
	3250 7700 2800 7700
Text Label 2800 7700 0    50   ~ 0
V1_OFACK
Text Label 3900 7300 2    50   ~ 0
V1_OFINT
Wire Wire Line
	2950 7300 2700 7300
Wire Wire Line
	2700 7300 2700 7400
Wire Wire Line
	2700 7400 2950 7400
NoConn ~ 3550 7500
Text Label 6150 7200 2    50   ~ 0
V2_SLATCH
Wire Wire Line
	5750 7200 6150 7200
$Comp
L 74xx:74LS74 U5
U 2 1 5CCAF229
P 3250 8250
F 0 "U5" H 3250 8728 50  0000 C CNN
F 1 "74LS74" H 3250 8637 50  0000 C CNN
F 2 "Package_DIP:DIP-14_W7.62mm" H 3250 8250 50  0001 C CNN
F 3 "74xx/74hc_hct74.pdf" H 3250 8250 50  0001 C CNN
	2    3250 8250
	1    0    0    -1  
$EndComp
Text Label 2800 7950 0    50   ~ 0
V2_OF
Wire Wire Line
	2800 7950 3250 7950
Wire Wire Line
	3250 8650 2800 8650
Text Label 2800 8650 0    50   ~ 0
V2_OFACK
Text Label 3900 8150 2    50   ~ 0
V2_OFINT
Wire Wire Line
	2950 8150 2700 8150
Wire Wire Line
	2700 8150 2700 8250
$Comp
L power:GND #PWR0103
U 1 1 5CCAF239
P 2700 8650
F 0 "#PWR0103" H 2700 8400 50  0001 C CNN
F 1 "GND" H 2705 8477 50  0000 C CNN
F 2 "" H 2700 8650 50  0001 C CNN
F 3 "" H 2700 8650 50  0001 C CNN
	1    2700 8650
	1    0    0    -1  
$EndComp
Wire Wire Line
	2700 8250 2950 8250
Connection ~ 2700 8250
Wire Wire Line
	2700 8250 2700 8650
NoConn ~ 3550 8350
Wire Wire Line
	4750 7750 4450 7750
Text Label 4450 7750 0    50   ~ 0
BSEL
Wire Wire Line
	4750 7850 4450 7850
Text Label 4450 7850 0    50   ~ 0
VSEL
Wire Wire Line
	4750 7100 4450 7100
Text Label 4450 7100 0    50   ~ 0
PHASE
$Comp
L 74xx:74LS139 U7
U 2 1 5CD97C39
P 5250 7850
F 0 "U7" H 5250 8217 50  0000 C CNN
F 1 "74LS139" H 5250 8126 50  0000 C CNN
F 2 "Package_DIP:DIP-16_W7.62mm" H 5250 7850 50  0001 C CNN
F 3 "http://www.ti.com/lit/gpn/sn74LS139" H 5250 7850 50  0001 C CNN
	2    5250 7850
	1    0    0    -1  
$EndComp
Text Label 6000 7850 2    50   ~ 0
V2_SEL
Wire Wire Line
	5750 7850 6000 7850
Wire Wire Line
	5750 7750 6000 7750
Text Label 6000 7750 2    50   ~ 0
V1_SEL
NoConn ~ 5750 7950
NoConn ~ 5750 8050
Wire Wire Line
	7500 8300 7200 8300
Text Label 7200 8300 0    50   ~ 0
VSEL
Wire Wire Line
	4750 8050 4650 8050
Wire Wire Line
	4650 8050 4650 8150
$Comp
L 74xx:74LS139 U7
U 1 1 5CF2DAA5
P 5250 7100
F 0 "U7" H 5250 7467 50  0000 C CNN
F 1 "74LS139" H 5250 7376 50  0000 C CNN
F 2 "Package_DIP:DIP-16_W7.62mm" H 5250 7100 50  0001 C CNN
F 3 "http://www.ti.com/lit/gpn/sn74LS139" H 5250 7100 50  0001 C CNN
	1    5250 7100
	1    0    0    -1  
$EndComp
Wire Wire Line
	4750 7300 4450 7300
Text Label 4450 7300 0    50   ~ 0
BSEL
Wire Wire Line
	4750 7000 4450 7000
Text Label 4450 7000 0    50   ~ 0
VSEL
Wire Wire Line
	7500 7100 7000 7100
Text Label 7000 7100 0    50   ~ 0
V1_BANK_A
Text Label 7000 7400 0    50   ~ 0
V1_BANK_B
Wire Wire Line
	7000 7400 7500 7400
Text Label 7000 7700 0    50   ~ 0
V1_BANK_C
Wire Wire Line
	7000 7700 7500 7700
Wire Wire Line
	7500 7200 7000 7200
Text Label 7000 7200 0    50   ~ 0
V2_BANK_A
Text Label 7000 7500 0    50   ~ 0
V2_BANK_B
Wire Wire Line
	7000 7500 7500 7500
Text Label 7000 7800 0    50   ~ 0
V2_BANK_C
Wire Wire Line
	7000 7800 7500 7800
Text GLabel 8600 7700 2    50   Output ~ 0
SOUND_A18
Wire Wire Line
	8500 7700 8600 7700
$Comp
L power:GND #PWR0104
U 1 1 5D450B55
P 8000 8800
F 0 "#PWR0104" H 8000 8550 50  0001 C CNN
F 1 "GND" H 8005 8627 50  0000 C CNN
F 2 "" H 8000 8800 50  0001 C CNN
F 3 "" H 8000 8800 50  0001 C CNN
	1    8000 8800
	1    0    0    -1  
$EndComp
Wire Wire Line
	6350 2500 6050 2500
Wire Wire Line
	6350 5700 6050 5700
$Comp
L power:GND #PWR0105
U 1 1 5CF2D9EA
P 4650 8150
F 0 "#PWR0105" H 4650 7900 50  0001 C CNN
F 1 "GND" H 4655 7977 50  0000 C CNN
F 2 "" H 4650 8150 50  0001 C CNN
F 3 "" H 4650 8150 50  0001 C CNN
	1    4650 8150
	1    0    0    -1  
$EndComp
Wire Wire Line
	3250 8650 3250 8550
Wire Wire Line
	2700 8150 2700 7400
Connection ~ 2700 8150
Connection ~ 2700 7400
$Comp
L power:VCC #PWR0106
U 1 1 5D8DD67F
P 8250 6700
F 0 "#PWR0106" H 8250 6550 50  0001 C CNN
F 1 "VCC" H 8267 6873 50  0000 C CNN
F 2 "" H 8250 6700 50  0001 C CNN
F 3 "" H 8250 6700 50  0001 C CNN
	1    8250 6700
	1    0    0    -1  
$EndComp
Wire Wire Line
	8000 6800 8250 6800
Wire Wire Line
	8250 6800 8250 6700
Wire Wire Line
	11800 2200 11700 2200
Wire Wire Line
	11700 2200 11700 2100
Connection ~ 11700 2200
$Comp
L Device:R R3
U 1 1 5DA36B8B
P 12800 1850
F 0 "R3" H 12870 1896 50  0000 L CNN
F 1 "1k" H 12870 1805 50  0000 L CNN
F 2 "Resistor_THT:R_Axial_DIN0207_L6.3mm_D2.5mm_P10.16mm_Horizontal" V 12730 1850 50  0001 C CNN
F 3 "~" H 12800 1850 50  0001 C CNN
	1    12800 1850
	1    0    0    -1  
$EndComp
$Comp
L Device:C C1
U 1 1 5DA36C1F
P 12500 1850
F 0 "C1" H 12615 1896 50  0000 L CNN
F 1 "10pf" H 12550 1750 50  0000 L CNN
F 2 "Capacitor_THT:C_Disc_D3.0mm_W2.0mm_P2.50mm" H 12538 1700 50  0001 C CNN
F 3 "~" H 12500 1850 50  0001 C CNN
	1    12500 1850
	1    0    0    -1  
$EndComp
Wire Wire Line
	12400 2100 12500 2100
Wire Wire Line
	12500 2000 12500 2100
Wire Wire Line
	12500 2100 12800 2100
Wire Wire Line
	12800 2100 12800 2000
Connection ~ 12500 2100
Wire Wire Line
	12500 1700 12500 1600
Wire Wire Line
	11600 1750 11600 1500
Wire Wire Line
	11600 1500 11900 1500
Wire Wire Line
	12800 1500 12800 1700
Wire Wire Line
	11400 1750 11600 1750
Wire Wire Line
	11400 2100 11600 2100
Wire Wire Line
	11400 1650 11500 1650
$Comp
L power:VDDA #PWR0107
U 1 1 5DB9F2BF
P 11500 850
F 0 "#PWR0107" H 11500 700 50  0001 C CNN
F 1 "VDDA" H 11517 1023 50  0000 C CNN
F 2 "" H 11500 850 50  0001 C CNN
F 3 "" H 11500 850 50  0001 C CNN
	1    11500 850 
	1    0    0    -1  
$EndComp
Wire Wire Line
	11100 2850 11100 3050
Wire Wire Line
	9250 3050 9250 2900
Wire Wire Line
	9250 3050 8650 3050
Wire Wire Line
	6850 3050 6850 2900
Wire Wire Line
	6850 3050 4600 3050
Connection ~ 6850 3050
Wire Wire Line
	4600 2650 4600 3050
Wire Wire Line
	4100 1550 4100 3050
Wire Wire Line
	4100 3050 4600 3050
Connection ~ 4100 3050
Wire Wire Line
	4100 3050 4100 3150
Connection ~ 4600 3050
Wire Wire Line
	11700 2200 11700 3050
Wire Wire Line
	8650 2600 8650 3050
Connection ~ 8650 3050
Wire Wire Line
	8650 3050 6850 3050
Wire Wire Line
	11000 2850 11000 2950
Wire Wire Line
	11000 2950 10800 2950
Wire Wire Line
	10800 2950 10800 2850
$Comp
L power:VCC #PWR0108
U 1 1 5DD5D190
P 10800 2850
F 0 "#PWR0108" H 10800 2700 50  0001 C CNN
F 1 "VCC" H 10700 2850 50  0000 C CNN
F 2 "" H 10800 2850 50  0001 C CNN
F 3 "" H 10800 2850 50  0001 C CNN
	1    10800 2850
	1    0    0    -1  
$EndComp
Wire Wire Line
	11500 1250 11500 1350
Wire Wire Line
	11500 1350 11700 1350
Connection ~ 11500 1350
Wire Wire Line
	11500 1350 11500 1650
Wire Wire Line
	11500 950  11500 850 
Connection ~ 11900 1500
Wire Wire Line
	11900 1500 12800 1500
Wire Wire Line
	11600 1850 11600 2100
Connection ~ 11600 2100
Wire Wire Line
	11600 2100 11700 2100
Wire Wire Line
	11800 1850 11600 1850
Wire Wire Line
	11400 2000 11700 2000
Wire Wire Line
	11700 2000 11800 2000
Connection ~ 11700 2000
Wire Wire Line
	11700 1600 11700 2000
Wire Wire Line
	11800 1700 11800 1850
Wire Wire Line
	12100 1700 11800 1700
$Comp
L Device:R R5
U 1 1 5DE9B274
P 13050 2100
F 0 "R5" V 12843 2100 50  0000 C CNN
F 1 "10k" V 12934 2100 50  0000 C CNN
F 2 "Resistor_THT:R_Axial_DIN0207_L6.3mm_D2.5mm_P10.16mm_Horizontal" V 12980 2100 50  0001 C CNN
F 3 "~" H 13050 2100 50  0001 C CNN
	1    13050 2100
	0    1    1    0   
$EndComp
Wire Wire Line
	12800 2100 12900 2100
Connection ~ 12800 2100
Wire Wire Line
	13200 2100 13300 2100
Wire Wire Line
	14000 2200 14100 2200
$Comp
L Device:R R11
U 1 1 5DF7534E
P 13700 1700
F 0 "R11" V 13493 1700 50  0000 C CNN
F 1 "20k" V 13584 1700 50  0000 C CNN
F 2 "Resistor_THT:R_Axial_DIN0207_L6.3mm_D2.5mm_P10.16mm_Horizontal" V 13630 1700 50  0001 C CNN
F 3 "~" H 13700 1700 50  0001 C CNN
	1    13700 1700
	0    1    1    0   
$EndComp
Wire Wire Line
	13850 1700 14100 1700
Wire Wire Line
	13300 2100 13300 1700
Wire Wire Line
	13300 1700 13550 1700
Connection ~ 13300 2100
Wire Wire Line
	13300 2100 13400 2100
$Comp
L Device:R R7
U 1 1 5DFBF3B2
P 13300 1450
F 0 "R7" H 13230 1404 50  0000 R CNN
F 1 "20k" H 13230 1495 50  0000 R CNN
F 2 "Resistor_THT:R_Axial_DIN0207_L6.3mm_D2.5mm_P10.16mm_Horizontal" V 13230 1450 50  0001 C CNN
F 3 "~" H 13300 1450 50  0001 C CNN
	1    13300 1450
	-1   0    0    1   
$EndComp
Wire Wire Line
	13300 1300 13300 1200
Wire Wire Line
	13300 1600 13300 1700
Connection ~ 13300 1700
Wire Wire Line
	11900 1000 11900 1500
Wire Wire Line
	12000 1000 12000 1200
Wire Wire Line
	12100 1000 12100 1700
$Comp
L Device:R R8
U 1 1 5E0ED7CA
P 13300 2550
F 0 "R8" H 13370 2596 50  0000 L CNN
F 1 "5k" H 13370 2505 50  0000 L CNN
F 2 "Resistor_THT:R_Axial_DIN0207_L6.3mm_D2.5mm_P10.16mm_Horizontal" V 13230 2550 50  0001 C CNN
F 3 "~" H 13300 2550 50  0001 C CNN
	1    13300 2550
	1    0    0    -1  
$EndComp
Wire Wire Line
	13300 2400 13300 2300
Wire Wire Line
	13300 2300 13400 2300
Wire Wire Line
	11700 3050 13300 3050
Wire Wire Line
	13300 2700 13300 3050
Connection ~ 11700 3050
$Comp
L 74xx:74HC590 U13
U 1 1 5E1EEBE9
P 4600 5250
AR Path="/5BD012B9/5E1EEBE9" Ref="U13"  Part="1" 
AR Path="/5BD2AF95/5E1EEBE9" Ref="U?"  Part="1" 
AR Path="/5E1EEBE9" Ref="U13"  Part="1" 
F 0 "U13" H 4600 6128 50  0000 C CNN
F 1 "74HC590" H 4600 6037 50  0000 C CNN
F 2 "Package_DIP:DIP-16_W7.62mm" H 4600 5300 50  0001 C CNN
F 3 "https://assets.nexperia.com/documents/data-sheet/74HC590.pdf" H 4600 5300 50  0001 C CNN
	1    4600 5250
	1    0    0    -1  
$EndComp
$Comp
L 74xx:74LS574 U15
U 1 1 5E1EEBF1
P 6850 5300
AR Path="/5BD012B9/5E1EEBF1" Ref="U15"  Part="1" 
AR Path="/5BD2AF95/5E1EEBF1" Ref="U?"  Part="1" 
AR Path="/5E1EEBF1" Ref="U15"  Part="1" 
F 0 "U15" H 6850 6278 50  0000 C CNN
F 1 "74LS574" H 6850 6187 50  0000 C CNN
F 2 "Package_DIP:DIP-20_W7.62mm" H 6850 5300 50  0001 C CNN
F 3 "http://www.ti.com/lit/gpn/sn74LS574" H 6850 5300 50  0001 C CNN
	1    6850 5300
	1    0    0    -1  
$EndComp
Text Label 3450 5450 0    50   ~ 0
V2_SEL
$Comp
L 74xx:74LS574 U19
U 1 1 5E1EEBF8
P 9250 5300
AR Path="/5BD012B9/5E1EEBF8" Ref="U19"  Part="1" 
AR Path="/5BD2AF95/5E1EEBF8" Ref="U?"  Part="1" 
AR Path="/5E1EEBF8" Ref="U19"  Part="1" 
F 0 "U19" H 9250 6278 50  0000 C CNN
F 1 "74LS574" H 9250 6187 50  0000 C CNN
F 2 "Package_DIP:DIP-20_W7.62mm" H 9250 5300 50  0001 C CNN
F 3 "http://www.ti.com/lit/gpn/sn74LS574" H 9250 5300 50  0001 C CNN
	1    9250 5300
	1    0    0    -1  
$EndComp
Text Label 3450 4950 0    50   ~ 0
V2_SCLK
Wire Wire Line
	3450 4950 4000 4950
Wire Wire Line
	4000 5050 4000 4950
Connection ~ 4000 4950
Wire Wire Line
	4000 5050 4200 5050
Wire Wire Line
	4000 4950 4200 4950
Wire Wire Line
	4200 4750 4100 4750
$Comp
L power:GND #PWR0109
U 1 1 5E1EEC05
P 4100 6350
AR Path="/5BD012B9/5E1EEC05" Ref="#PWR0109"  Part="1" 
AR Path="/5BD2AF95/5E1EEC05" Ref="#PWR?"  Part="1" 
AR Path="/5E1EEC05" Ref="#PWR0109"  Part="1" 
F 0 "#PWR0109" H 4100 6100 50  0001 C CNN
F 1 "GND" H 4105 6177 50  0000 C CNN
F 2 "" H 4100 6350 50  0001 C CNN
F 3 "" H 4100 6350 50  0001 C CNN
	1    4100 6350
	1    0    0    -1  
$EndComp
Text Label 3450 5250 0    50   ~ 0
V2_RESET
Wire Wire Line
	3450 5250 4000 5250
Wire Wire Line
	3450 5450 4200 5450
Text Label 8350 5700 0    50   ~ 0
V2_SLATCH
Text Notes 9350 6050 0    50   ~ 0
V2 audio data latch
Text Notes 6950 6050 0    50   ~ 0
V2 addr MSB latch
Text Notes 4500 5950 0    50   ~ 0
V2 addr LSB gen
Wire Wire Line
	10400 5800 10300 5800
Wire Wire Line
	10300 5800 10300 6250
Text Notes 11200 6000 0    50   ~ 0
V2 DAC
Text GLabel 5250 5450 2    50   Output ~ 0
SOUND_A7
Text GLabel 5250 5350 2    50   Output ~ 0
SOUND_A6
Text GLabel 5250 5250 2    50   Output ~ 0
SOUND_A5
Text GLabel 5250 5150 2    50   Output ~ 0
SOUND_A4
Text GLabel 5250 5050 2    50   Output ~ 0
SOUND_A3
Text GLabel 5250 4950 2    50   Output ~ 0
SOUND_A2
Text GLabel 5250 4850 2    50   Output ~ 0
SOUND_A1
Text GLabel 5250 4750 2    50   Output ~ 0
SOUND_A0
Text GLabel 7500 5500 2    50   Output ~ 0
SOUND_A15
Text GLabel 7500 5400 2    50   Output ~ 0
SOUND_A14
Text GLabel 7500 5300 2    50   Output ~ 0
SOUND_A13
Text GLabel 7500 5200 2    50   Output ~ 0
SOUND_A12
Text GLabel 7500 5100 2    50   Output ~ 0
SOUND_A11
Text GLabel 7500 5000 2    50   Output ~ 0
SOUND_A10
Text GLabel 7500 4900 2    50   Output ~ 0
SOUND_A9
Text GLabel 7500 4800 2    50   Output ~ 0
SOUND_A8
Text GLabel 8600 5500 0    50   Input ~ 0
SOUND_D7
Text GLabel 8600 5400 0    50   Input ~ 0
SOUND_D6
Text GLabel 8600 5300 0    50   Input ~ 0
SOUND_D5
Text GLabel 8600 5200 0    50   Input ~ 0
SOUND_D4
Text GLabel 8600 5100 0    50   Input ~ 0
SOUND_D3
Text GLabel 8600 5000 0    50   Input ~ 0
SOUND_D2
Text GLabel 8600 4900 0    50   Input ~ 0
SOUND_D1
Text GLabel 8600 4800 0    50   Input ~ 0
SOUND_D0
Wire Wire Line
	8600 5500 8750 5500
Wire Wire Line
	8750 5400 8600 5400
Wire Wire Line
	8600 5300 8750 5300
Wire Wire Line
	8750 5200 8600 5200
Wire Wire Line
	8600 5100 8750 5100
Wire Wire Line
	8750 5000 8600 5000
Wire Wire Line
	8600 4900 8750 4900
Wire Wire Line
	8750 4800 8600 4800
Wire Wire Line
	7350 5500 7500 5500
Wire Wire Line
	7500 5400 7350 5400
Wire Wire Line
	7350 5300 7500 5300
Wire Wire Line
	7500 5200 7350 5200
Wire Wire Line
	7350 5100 7500 5100
Wire Wire Line
	7500 5000 7350 5000
Wire Wire Line
	7350 4900 7500 4900
Wire Wire Line
	7500 4800 7350 4800
Wire Wire Line
	5000 4750 5250 4750
Wire Wire Line
	5250 4850 5000 4850
Wire Wire Line
	5000 4950 5250 4950
Wire Wire Line
	5250 5050 5000 5050
Wire Wire Line
	5000 5150 5250 5150
Wire Wire Line
	5250 5250 5000 5250
Wire Wire Line
	5000 5350 5250 5350
Wire Wire Line
	5250 5450 5000 5450
Wire Wire Line
	8750 5800 8650 5800
Wire Wire Line
	11800 5400 11700 5400
Wire Wire Line
	11700 5400 11700 5300
Connection ~ 11700 5400
$Comp
L Device:R R4
U 1 1 5E1EEC8C
P 12800 5050
F 0 "R4" H 12870 5096 50  0000 L CNN
F 1 "1k" H 12870 5005 50  0000 L CNN
F 2 "Resistor_THT:R_Axial_DIN0207_L6.3mm_D2.5mm_P10.16mm_Horizontal" V 12730 5050 50  0001 C CNN
F 3 "~" H 12800 5050 50  0001 C CNN
	1    12800 5050
	1    0    0    -1  
$EndComp
$Comp
L Device:C C2
U 1 1 5E1EEC92
P 12500 5050
F 0 "C2" H 12615 5096 50  0000 L CNN
F 1 "10pf" H 12550 4950 50  0000 L CNN
F 2 "Capacitor_THT:C_Disc_D3.0mm_W2.0mm_P2.50mm" H 12538 4900 50  0001 C CNN
F 3 "~" H 12500 5050 50  0001 C CNN
	1    12500 5050
	1    0    0    -1  
$EndComp
Wire Wire Line
	12400 5300 12500 5300
Wire Wire Line
	12500 5200 12500 5300
Wire Wire Line
	12500 5300 12800 5300
Wire Wire Line
	12800 5300 12800 5200
Connection ~ 12500 5300
Wire Wire Line
	12500 4900 12500 4800
Wire Wire Line
	11600 4950 11600 4700
Wire Wire Line
	11600 4700 11900 4700
Wire Wire Line
	12800 4700 12800 4900
Wire Wire Line
	11400 4950 11600 4950
Wire Wire Line
	11400 5300 11600 5300
Wire Wire Line
	11400 4850 11500 4850
$Comp
L power:VDDA #PWR0110
U 1 1 5E1EECA4
P 11500 4050
F 0 "#PWR0110" H 11500 3900 50  0001 C CNN
F 1 "VDDA" H 11517 4223 50  0000 C CNN
F 2 "" H 11500 4050 50  0001 C CNN
F 3 "" H 11500 4050 50  0001 C CNN
	1    11500 4050
	1    0    0    -1  
$EndComp
Wire Wire Line
	11100 6050 11100 6250
Wire Wire Line
	9250 6250 9250 6100
Wire Wire Line
	9250 6250 8650 6250
Wire Wire Line
	6850 6250 6850 6100
Wire Wire Line
	6850 6250 4600 6250
Connection ~ 6850 6250
Wire Wire Line
	4600 5850 4600 6250
Wire Wire Line
	4100 4750 4100 6250
Wire Wire Line
	4100 6250 4600 6250
Connection ~ 4100 6250
Wire Wire Line
	4100 6250 4100 6350
Connection ~ 4600 6250
Wire Wire Line
	11700 5400 11700 6250
Wire Wire Line
	8650 5800 8650 6250
Connection ~ 8650 6250
Wire Wire Line
	8650 6250 6850 6250
Wire Wire Line
	11000 6050 11000 6150
Wire Wire Line
	11000 6150 10800 6150
Wire Wire Line
	10800 6150 10800 6050
$Comp
L power:VCC #PWR0111
U 1 1 5E1EECCA
P 10800 6050
F 0 "#PWR0111" H 10800 5900 50  0001 C CNN
F 1 "VCC" H 10700 6050 50  0000 C CNN
F 2 "" H 10800 6050 50  0001 C CNN
F 3 "" H 10800 6050 50  0001 C CNN
	1    10800 6050
	1    0    0    -1  
$EndComp
Wire Wire Line
	11500 4450 11500 4550
Wire Wire Line
	11500 4550 11750 4550
Connection ~ 11500 4550
Wire Wire Line
	11500 4550 11500 4850
Wire Wire Line
	11500 4150 11500 4050
Connection ~ 11900 4700
Wire Wire Line
	11900 4700 12800 4700
Wire Wire Line
	11600 5050 11600 5300
Connection ~ 11600 5300
Wire Wire Line
	11600 5300 11700 5300
$Comp
L Device:R R6
U 1 1 5E1EECF6
P 13050 5300
F 0 "R6" V 12843 5300 50  0000 C CNN
F 1 "10k" V 12934 5300 50  0000 C CNN
F 2 "Resistor_THT:R_Axial_DIN0207_L6.3mm_D2.5mm_P10.16mm_Horizontal" V 12980 5300 50  0001 C CNN
F 3 "~" H 13050 5300 50  0001 C CNN
	1    13050 5300
	0    1    1    0   
$EndComp
Wire Wire Line
	12800 5300 12900 5300
Connection ~ 12800 5300
Wire Wire Line
	13200 5300 13300 5300
$Comp
L Device:R R12
U 1 1 5E1EED01
P 13700 4900
F 0 "R12" V 13493 4900 50  0000 C CNN
F 1 "20k" V 13584 4900 50  0000 C CNN
F 2 "Resistor_THT:R_Axial_DIN0207_L6.3mm_D2.5mm_P10.16mm_Horizontal" V 13630 4900 50  0001 C CNN
F 3 "~" H 13700 4900 50  0001 C CNN
	1    13700 4900
	0    1    1    0   
$EndComp
Wire Wire Line
	13300 5300 13300 4900
Wire Wire Line
	13300 4900 13550 4900
Connection ~ 13300 5300
Wire Wire Line
	13300 5300 13400 5300
$Comp
L Device:R R9
U 1 1 5E1EED0C
P 13300 4650
F 0 "R9" H 13230 4604 50  0000 R CNN
F 1 "20k" H 13230 4695 50  0000 R CNN
F 2 "Resistor_THT:R_Axial_DIN0207_L6.3mm_D2.5mm_P10.16mm_Horizontal" V 13230 4650 50  0001 C CNN
F 3 "~" H 13300 4650 50  0001 C CNN
	1    13300 4650
	-1   0    0    1   
$EndComp
Wire Wire Line
	13300 4500 13300 4400
Wire Wire Line
	13300 4800 13300 4900
Connection ~ 13300 4900
Wire Wire Line
	11900 4200 11900 4700
$Comp
L Device:R R10
U 1 1 5E1EED1C
P 13300 5750
F 0 "R10" H 13370 5796 50  0000 L CNN
F 1 "5k" H 13370 5705 50  0000 L CNN
F 2 "Resistor_THT:R_Axial_DIN0207_L6.3mm_D2.5mm_P10.16mm_Horizontal" V 13230 5750 50  0001 C CNN
F 3 "~" H 13300 5750 50  0001 C CNN
	1    13300 5750
	1    0    0    -1  
$EndComp
Wire Wire Line
	13300 5600 13300 5500
Wire Wire Line
	13300 5500 13400 5500
Wire Wire Line
	11700 6250 13300 6250
Wire Wire Line
	13300 5900 13300 6250
Connection ~ 11700 6250
Wire Wire Line
	9900 5700 10400 5700
$Comp
L AD7524:AD7524 U21
U 1 1 5E1EEC33
P 10900 5250
AR Path="/5BD012B9/5E1EEC33" Ref="U21"  Part="1" 
AR Path="/5BD2AF95/5E1EEC33" Ref="U?"  Part="1" 
AR Path="/5E1EEC33" Ref="U21"  Part="1" 
F 0 "U21" H 10900 5925 50  0000 C CNN
F 1 "AD7524" H 10900 5834 50  0000 C CNN
F 2 "Package_DIP:DIP-16_W7.62mm" H 10900 5250 50  0001 C CNN
F 3 "" H 10900 5250 50  0001 C CNN
	1    10900 5250
	1    0    0    -1  
$EndComp
Wire Wire Line
	8350 5700 8750 5700
Wire Wire Line
	8350 2500 8750 2500
Wire Wire Line
	14000 5400 14100 5400
Wire Wire Line
	14100 5400 14100 4900
Wire Wire Line
	14100 4900 13850 4900
$Comp
L Device:R R14
U 1 1 5E5D848B
P 14350 5400
F 0 "R14" V 14143 5400 50  0000 C CNN
F 1 "470" V 14234 5400 50  0000 C CNN
F 2 "Resistor_THT:R_Axial_DIN0207_L6.3mm_D2.5mm_P10.16mm_Horizontal" V 14280 5400 50  0001 C CNN
F 3 "~" H 14350 5400 50  0001 C CNN
	1    14350 5400
	0    1    1    0   
$EndComp
Wire Wire Line
	14100 5400 14200 5400
Connection ~ 14100 5400
Wire Wire Line
	14100 2200 14100 1700
Connection ~ 14100 2200
Wire Wire Line
	14100 2200 14200 2200
$Comp
L Device:R R13
U 1 1 5E6621B3
P 14350 2200
F 0 "R13" V 14450 2200 50  0000 C CNN
F 1 "470" V 14350 2200 50  0000 C CNN
F 2 "Resistor_THT:R_Axial_DIN0207_L6.3mm_D2.5mm_P10.16mm_Horizontal" V 14280 2200 50  0001 C CNN
F 3 "~" H 14350 2200 50  0001 C CNN
	1    14350 2200
	0    1    1    0   
$EndComp
$Comp
L Connector_Generic:Conn_01x06 J3
U 1 1 5E74A784
P 12000 800
F 0 "J3" V 11966 412 50  0000 R CNN
F 1 "V1 Analog audio" V 11875 412 50  0000 R CNN
F 2 "Connector_PinHeader_2.54mm:PinHeader_1x06_P2.54mm_Vertical" H 12000 800 50  0001 C CNN
F 3 "~" H 12000 800 50  0001 C CNN
	1    12000 800 
	0    -1   -1   0   
$EndComp
Wire Wire Line
	14100 1700 14100 1100
Wire Wire Line
	14100 1100 12200 1100
Wire Wire Line
	12200 1100 12200 1000
Connection ~ 14100 1700
Connection ~ 13300 3050
$Comp
L Connector_Generic:Conn_01x06 J4
U 1 1 5E7A8B61
P 12000 4000
F 0 "J4" V 11966 3612 50  0000 R CNN
F 1 "V2 Analog audio" V 11875 3612 50  0000 R CNN
F 2 "Connector_PinHeader_2.54mm:PinHeader_1x06_P2.54mm_Vertical" H 12000 4000 50  0001 C CNN
F 3 "~" H 12000 4000 50  0001 C CNN
	1    12000 4000
	0    -1   -1   0   
$EndComp
Wire Wire Line
	12200 4200 12200 4300
Wire Wire Line
	12200 4300 14100 4300
Wire Wire Line
	14100 4300 14100 4900
Connection ~ 14100 4900
Connection ~ 13300 6250
Wire Wire Line
	11700 5200 11800 5200
Wire Wire Line
	11400 5200 11700 5200
Connection ~ 11700 5200
Wire Wire Line
	11700 4800 11700 5200
Wire Wire Line
	11800 5050 11600 5050
Wire Wire Line
	11800 4900 11800 5050
Wire Wire Line
	12100 4900 11800 4900
Wire Wire Line
	12100 4200 12100 4900
Wire Wire Line
	11700 4800 11800 4800
Text GLabel 13400 8400 0    50   Output ~ 0
SOUND_A15
Text GLabel 13400 8500 0    50   Output ~ 0
SOUND_A14
Text GLabel 14200 8500 2    50   Output ~ 0
SOUND_A13
Text GLabel 14200 8600 2    50   Output ~ 0
SOUND_A12
Text GLabel 13400 8700 0    50   Output ~ 0
SOUND_A11
Text GLabel 13400 8800 0    50   Output ~ 0
SOUND_A10
Text GLabel 14200 8800 2    50   Output ~ 0
SOUND_A9
Text GLabel 14200 8900 2    50   Output ~ 0
SOUND_A8
Wire Wire Line
	14200 7300 14050 7300
Wire Wire Line
	13400 7200 13550 7200
Wire Wire Line
	14200 8200 14050 8200
Text GLabel 14200 7700 2    50   Input ~ 0
SOUND_D7
Text GLabel 14200 7600 2    50   Input ~ 0
SOUND_D6
Text GLabel 13400 7600 0    50   Input ~ 0
SOUND_D5
Text GLabel 13400 7500 0    50   Input ~ 0
SOUND_D4
Text GLabel 14200 7400 2    50   Input ~ 0
SOUND_D3
Text GLabel 14200 7300 2    50   Input ~ 0
SOUND_D2
Text GLabel 13400 7300 0    50   Input ~ 0
SOUND_D1
Text GLabel 13400 7200 0    50   Input ~ 0
SOUND_D0
Text GLabel 13400 9000 0    50   Output ~ 0
SOUND_A7
Text GLabel 13400 9100 0    50   Output ~ 0
SOUND_A6
Text GLabel 14200 9100 2    50   Output ~ 0
SOUND_A5
Text GLabel 14200 9200 2    50   Output ~ 0
SOUND_A4
Text GLabel 13400 9300 0    50   Output ~ 0
SOUND_A3
Text GLabel 13400 9400 0    50   Output ~ 0
SOUND_A2
Text GLabel 14200 9400 2    50   Output ~ 0
SOUND_A1
Text GLabel 14200 9500 2    50   Output ~ 0
SOUND_A0
Wire Wire Line
	13550 8400 13400 8400
Wire Wire Line
	14200 8500 14050 8500
Wire Wire Line
	13550 8700 13400 8700
Wire Wire Line
	14200 8800 14050 8800
Wire Wire Line
	13550 9000 13400 9000
Wire Wire Line
	14200 9100 14050 9100
Wire Wire Line
	13550 9300 13400 9300
Wire Wire Line
	14200 9400 14050 9400
Text GLabel 14200 8300 2    50   Output ~ 0
SOUND_A16
Text GLabel 14200 8200 2    50   Output ~ 0
SOUND_A17
Text GLabel 13400 8200 0    50   Output ~ 0
SOUND_A18
Wire Wire Line
	14200 8300 14050 8300
Text Label 10400 7650 0    50   ~ 0
PHASE
Text Label 10400 7750 0    50   ~ 0
BSEL
Text Label 10400 7550 0    50   ~ 0
VSEL
Wire Wire Line
	10400 7750 10850 7750
Wire Wire Line
	10400 7650 10850 7650
Wire Wire Line
	10400 7550 10850 7550
Wire Wire Line
	11350 7750 11450 7750
Wire Wire Line
	11450 7750 11450 7650
Wire Wire Line
	11450 7650 11350 7650
Connection ~ 11450 7750
Wire Wire Line
	11350 7550 11450 7550
Wire Wire Line
	11450 7550 11450 7650
Connection ~ 11450 7650
$Comp
L power:GND #PWR0112
U 1 1 61E5F5E4
P 11450 8700
F 0 "#PWR0112" H 11450 8450 50  0001 C CNN
F 1 "GND" H 11455 8527 50  0000 C CNN
F 2 "" H 11450 8700 50  0001 C CNN
F 3 "" H 11450 8700 50  0001 C CNN
	1    11450 8700
	-1   0    0    -1  
$EndComp
Wire Wire Line
	13550 7500 13400 7500
Wire Wire Line
	11450 8450 11350 8450
Connection ~ 11450 8450
Wire Wire Line
	11450 8450 11450 8700
Text Label 10400 7850 0    50   ~ 0
V1_OFINT
Text Label 10400 8050 0    50   ~ 0
V2_OFINT
Wire Wire Line
	10400 8050 10850 8050
Wire Wire Line
	10400 7950 10850 7950
Wire Wire Line
	10400 7850 10850 7850
Wire Wire Line
	10400 8150 10850 8150
Text Label 10400 8150 0    50   ~ 0
V2_OFACK
Text Label 10400 7950 0    50   ~ 0
V1_OFACK
Wire Wire Line
	11100 3050 11700 3050
$Comp
L power:VCC #PWR0113
U 1 1 6488B9E9
P 9450 4100
F 0 "#PWR0113" H 9450 3950 50  0001 C CNN
F 1 "VCC" H 9467 4273 50  0000 C CNN
F 2 "" H 9450 4100 50  0001 C CNN
F 3 "" H 9450 4100 50  0001 C CNN
	1    9450 4100
	1    0    0    -1  
$EndComp
Wire Wire Line
	4600 1350 4800 1350
Wire Wire Line
	4800 1350 4800 1000
Wire Wire Line
	4800 1000 7050 1000
Wire Wire Line
	9450 1000 9450 1300
Wire Wire Line
	9450 1300 9250 1300
Wire Wire Line
	6850 1300 7050 1300
Wire Wire Line
	7050 1300 7050 1000
Connection ~ 7050 1000
Wire Wire Line
	7050 1000 9450 1000
Wire Wire Line
	4600 4550 4800 4550
Wire Wire Line
	4800 4550 4800 4200
Wire Wire Line
	4800 4200 7050 4200
Wire Wire Line
	7050 4500 7050 4200
Wire Wire Line
	7050 4500 6850 4500
Wire Wire Line
	7050 4200 9450 4200
Connection ~ 7050 4200
Wire Wire Line
	9450 4500 9450 4200
Connection ~ 9450 4200
Wire Wire Line
	9450 4500 9250 4500
Wire Wire Line
	9450 4100 9450 4200
$Comp
L power:VCC #PWR0114
U 1 1 64BB6AF7
P 9450 900
F 0 "#PWR0114" H 9450 750 50  0001 C CNN
F 1 "VCC" H 9467 1073 50  0000 C CNN
F 2 "" H 9450 900 50  0001 C CNN
F 3 "" H 9450 900 50  0001 C CNN
	1    9450 900 
	1    0    0    -1  
$EndComp
Wire Wire Line
	9450 900  9450 1000
Connection ~ 9450 1000
Wire Wire Line
	13550 7300 13400 7300
Wire Wire Line
	14200 7400 14050 7400
Wire Wire Line
	13550 7600 13400 7600
Wire Wire Line
	14200 7700 14050 7700
Text GLabel 13400 8100 0    50   Output ~ 0
SOUND_A19
Wire Wire Line
	13550 8100 13400 8100
Wire Wire Line
	7500 8400 7200 8400
Text Label 7200 8400 0    50   ~ 0
BSEL
Wire Wire Line
	11100 6250 11700 6250
Wire Wire Line
	14200 7600 14050 7600
Wire Wire Line
	14200 9500 14050 9500
Wire Wire Line
	13400 9400 13550 9400
Wire Wire Line
	14050 9200 14200 9200
Wire Wire Line
	13400 9100 13550 9100
Wire Wire Line
	14050 8900 14200 8900
Wire Wire Line
	13400 8800 13550 8800
Wire Wire Line
	14050 8600 14200 8600
Wire Wire Line
	13400 8500 13550 8500
Wire Wire Line
	13400 8200 13550 8200
$Comp
L Connector_Generic:Conn_02x25_Odd_Even J5
U 1 1 674B7211
P 13750 8400
F 0 "J5" H 13800 9817 50  0000 C CNN
F 1 "SOUND_BUS" H 13800 9726 50  0000 C CNN
F 2 "Connector_PinHeader_2.54mm:PinHeader_2x25_P2.54mm_Vertical" H 13750 8400 50  0001 C CNN
F 3 "~" H 13750 8400 50  0001 C CNN
	1    13750 8400
	1    0    0    -1  
$EndComp
Wire Wire Line
	14050 7200 14750 7200
Wire Wire Line
	14750 7200 14750 7500
$Comp
L power:GND #PWR0115
U 1 1 6860B021
P 14750 9750
F 0 "#PWR0115" H 14750 9500 50  0001 C CNN
F 1 "GND" H 14755 9577 50  0000 C CNN
F 2 "" H 14750 9750 50  0001 C CNN
F 3 "" H 14750 9750 50  0001 C CNN
	1    14750 9750
	1    0    0    -1  
$EndComp
Wire Wire Line
	14050 9600 14750 9600
Connection ~ 14750 9600
Wire Wire Line
	14750 9600 14750 9750
Wire Wire Line
	14750 9300 14050 9300
Connection ~ 14750 9300
Wire Wire Line
	14750 9300 14750 9600
Wire Wire Line
	14050 8700 14750 8700
Connection ~ 14750 8700
Wire Wire Line
	14750 8700 14750 9000
Wire Wire Line
	14750 8400 14050 8400
Connection ~ 14750 8400
Wire Wire Line
	14750 8400 14750 8700
Wire Wire Line
	14050 8100 14750 8100
Connection ~ 14750 8100
Wire Wire Line
	14750 8100 14750 8400
Wire Wire Line
	14750 7500 14050 7500
Connection ~ 14750 7500
Wire Wire Line
	14750 7500 14750 7800
$Comp
L power:GND #PWR0116
U 1 1 687F6844
P 12850 9750
F 0 "#PWR0116" H 12850 9500 50  0001 C CNN
F 1 "GND" H 12855 9577 50  0000 C CNN
F 2 "" H 12850 9750 50  0001 C CNN
F 3 "" H 12850 9750 50  0001 C CNN
	1    12850 9750
	-1   0    0    -1  
$EndComp
Wire Wire Line
	13550 9500 12850 9500
Connection ~ 12850 9500
Wire Wire Line
	12850 9200 13550 9200
Connection ~ 12850 9200
Wire Wire Line
	12850 9200 12850 9500
Wire Wire Line
	13550 8600 12850 8600
Connection ~ 12850 8600
Wire Wire Line
	12850 8600 12850 8900
Wire Wire Line
	12850 8300 13550 8300
Connection ~ 12850 8300
Wire Wire Line
	12850 8300 12850 8600
Wire Wire Line
	13550 8000 12850 8000
Connection ~ 12850 8000
Wire Wire Line
	12850 8000 12850 8300
Wire Wire Line
	12850 7400 13550 7400
Wire Wire Line
	12850 7400 12850 7700
Wire Wire Line
	13550 8900 12850 8900
Connection ~ 12850 8900
Wire Wire Line
	12850 8900 12850 9200
Wire Wire Line
	14050 9000 14750 9000
Connection ~ 14750 9000
Wire Wire Line
	14750 9000 14750 9300
Wire Wire Line
	13550 7700 12850 7700
Connection ~ 12850 7700
Wire Wire Line
	12850 7700 12850 8000
NoConn ~ 13550 7800
NoConn ~ 13550 7900
NoConn ~ 14050 7900
NoConn ~ 14050 8000
Wire Wire Line
	12850 9500 12850 9600
Text Label 10050 1600 2    50   ~ 0
V1_D0
Text Label 10050 1700 2    50   ~ 0
V1_D1
Text Label 10050 1800 2    50   ~ 0
V1_D2
Text Label 10050 1900 2    50   ~ 0
V1_D3
Text Label 10050 2000 2    50   ~ 0
V1_D4
Text Label 10050 2100 2    50   ~ 0
V1_D5
Text Label 10050 2200 2    50   ~ 0
V1_D6
Text Label 10050 2300 2    50   ~ 0
V1_D7
Wire Wire Line
	9750 4800 10400 4800
Wire Wire Line
	9750 4900 10400 4900
Wire Wire Line
	9750 5000 10400 5000
Wire Wire Line
	9750 5100 10400 5100
Wire Wire Line
	9750 5200 10400 5200
Wire Wire Line
	9750 5300 10400 5300
Wire Wire Line
	9750 5400 10400 5400
Wire Wire Line
	9750 5500 10400 5500
Wire Wire Line
	9750 1600 10400 1600
Wire Wire Line
	9750 1700 10400 1700
Wire Wire Line
	9750 1800 10400 1800
Wire Wire Line
	9750 1900 10400 1900
Wire Wire Line
	9750 2000 10400 2000
Wire Wire Line
	9750 2100 10400 2100
Wire Wire Line
	9750 2200 10400 2200
Wire Wire Line
	9750 2300 10400 2300
Wire Wire Line
	14050 7800 14750 7800
Connection ~ 14750 7800
Wire Wire Line
	14750 7800 14750 8100
$Comp
L 74xx:74HC595 U8
U 1 1 5BD0A2EA
P 2000 2100
F 0 "U8" H 2000 2878 50  0000 C CNN
F 1 "74HC595" H 2000 2787 50  0000 C CNN
F 2 "Package_DIP:DIP-16_W7.62mm" H 2000 2100 50  0001 C CNN
F 3 "http://www.ti.com/lit/ds/symlink/sn74hc595.pdf" H 2000 2100 50  0001 C CNN
	1    2000 2100
	1    0    0    -1  
$EndComp
$Comp
L 74xx:74HC595 U9
U 1 1 5BDA8FFA
P 2000 3850
F 0 "U9" H 2000 4628 50  0000 C CNN
F 1 "74HC595" H 2000 4537 50  0000 C CNN
F 2 "Package_DIP:DIP-16_W7.62mm" H 2000 3850 50  0001 C CNN
F 3 "http://www.ti.com/lit/ds/symlink/sn74hc595.pdf" H 2000 3850 50  0001 C CNN
	1    2000 3850
	1    0    0    -1  
$EndComp
$Comp
L 74xx:74HC595 U10
U 1 1 5BECFE88
P 2000 5650
F 0 "U10" H 2000 6428 50  0000 C CNN
F 1 "74HC595" H 2000 6337 50  0000 C CNN
F 2 "Package_DIP:DIP-16_W7.62mm" H 2000 5650 50  0001 C CNN
F 3 "http://www.ti.com/lit/ds/symlink/sn74hc595.pdf" H 2000 5650 50  0001 C CNN
	1    2000 5650
	1    0    0    -1  
$EndComp
Wire Wire Line
	2000 1500 2250 1500
$Comp
L power:VCC #PWR0117
U 1 1 5C3F8DEB
P 2250 1200
F 0 "#PWR0117" H 2250 1050 50  0001 C CNN
F 1 "VCC" H 2267 1373 50  0000 C CNN
F 2 "" H 2250 1200 50  0001 C CNN
F 3 "" H 2250 1200 50  0001 C CNN
	1    2250 1200
	1    0    0    -1  
$EndComp
Wire Wire Line
	2250 1500 3000 1500
Wire Wire Line
	3000 3250 2000 3250
Connection ~ 2250 1500
Wire Wire Line
	3000 3250 3000 5050
Wire Wire Line
	3000 5050 2000 5050
Wire Wire Line
	1400 6450 2000 6450
Wire Wire Line
	2000 6450 2000 6350
Wire Wire Line
	2000 4550 2000 4650
Wire Wire Line
	2000 4650 1400 4650
Connection ~ 1400 4650
Wire Wire Line
	1400 4650 1400 5850
Wire Wire Line
	1400 2900 2000 2900
Wire Wire Line
	2000 2900 2000 2800
Wire Wire Line
	2250 1200 2250 1500
Wire Wire Line
	1400 2900 1400 4050
Wire Wire Line
	3000 1500 3000 3250
Connection ~ 3000 3250
Text Label 1100 2400 3    50   ~ 0
SPI_CLK
Wire Wire Line
	1400 2900 1400 2300
Wire Wire Line
	1400 2300 1600 2300
Connection ~ 1400 2900
Wire Wire Line
	1400 5850 1600 5850
Connection ~ 1400 5850
Wire Wire Line
	1400 5850 1400 6450
Wire Wire Line
	1600 4050 1400 4050
Connection ~ 1400 4050
Wire Wire Line
	1400 4050 1400 4650
Text Label 1300 2400 3    50   ~ 0
SPI_CS
Wire Wire Line
	1400 6450 1400 6550
Connection ~ 1400 6450
$Comp
L power:GND #PWR0118
U 1 1 5CFD64D1
P 1400 6550
F 0 "#PWR0118" H 1400 6300 50  0001 C CNN
F 1 "GND" H 1405 6377 50  0000 C CNN
F 2 "" H 1400 6550 50  0001 C CNN
F 3 "" H 1400 6550 50  0001 C CNN
	1    1400 6550
	1    0    0    -1  
$EndComp
Text Label 1000 5250 0    50   ~ 0
SPI_MOSI
Text Label 10400 8250 0    50   ~ 0
SPI_CLK
Text Label 10400 8350 0    50   ~ 0
SPI_CS
Text Label 10400 8450 0    50   ~ 0
SPI_MOSI
Wire Wire Line
	10850 8450 10400 8450
Wire Wire Line
	10850 8250 10400 8250
Wire Wire Line
	10850 8350 10400 8350
Wire Wire Line
	8000 8700 8000 8800
Text Label 7000 8000 0    50   ~ 0
V1_BANK_D
Wire Wire Line
	7000 8000 7500 8000
Text Label 7000 8100 0    50   ~ 0
V2_BANK_D
Wire Wire Line
	7000 8100 7500 8100
Text GLabel 8600 8000 2    50   Output ~ 0
SOUND_A19
Wire Wire Line
	8500 8000 8600 8000
$Comp
L Connector_Generic:Conn_02x10_Odd_Even J2
U 1 1 63F6556E
P 11150 7950
F 0 "J2" H 11200 8567 50  0000 C CNN
F 1 "CTRL" H 11200 8476 50  0000 C CNN
F 2 "Connector_PinHeader_2.54mm:PinHeader_2x10_P2.54mm_Vertical" H 11150 7950 50  0001 C CNN
F 3 "~" H 11150 7950 50  0001 C CNN
	1    11150 7950
	-1   0    0    -1  
$EndComp
Wire Wire Line
	11450 7750 11450 8050
Wire Wire Line
	11350 8050 11450 8050
Connection ~ 11450 8050
Wire Wire Line
	11450 8050 11450 8250
Wire Wire Line
	11450 8250 11350 8250
Connection ~ 11450 8250
Wire Wire Line
	11450 8250 11450 8450
Text Label 2900 5950 2    50   ~ 0
V2_BANK_D
Wire Wire Line
	2900 5950 2400 5950
Text Label 2900 5850 2    50   ~ 0
V1_BANK_D
Wire Wire Line
	2900 5850 2400 5850
$Comp
L Amplifier_Operational:TL072 U17
U 2 1 5E1EECF0
P 13700 5400
F 0 "U17" H 13700 5033 50  0000 C CNN
F 1 "TL072" H 13700 5124 50  0000 C CNN
F 2 "Package_DIP:DIP-8_W7.62mm" H 13700 5400 50  0001 C CNN
F 3 "http://www.ti.com/lit/ds/symlink/tl071.pdf" H 13700 5400 50  0001 C CNN
	2    13700 5400
	1    0    0    1   
$EndComp
$Comp
L Amplifier_Operational:TL072 U17
U 1 1 5E1EEC83
P 12100 5300
F 0 "U17" H 12150 5000 50  0000 C CNN
F 1 "TL072" H 12200 5100 50  0000 C CNN
F 2 "Package_DIP:DIP-8_W7.62mm" H 12100 5300 50  0001 C CNN
F 3 "http://www.ti.com/lit/ds/symlink/tl071.pdf" H 12100 5300 50  0001 C CNN
	1    12100 5300
	1    0    0    1   
$EndComp
$Comp
L Amplifier_Operational:TL072 U16
U 2 1 5DE9B14D
P 13700 2200
F 0 "U16" H 13700 1833 50  0000 C CNN
F 1 "TL072" H 13700 1924 50  0000 C CNN
F 2 "Package_DIP:DIP-8_W7.62mm" H 13700 2200 50  0001 C CNN
F 3 "http://www.ti.com/lit/ds/symlink/tl071.pdf" H 13700 2200 50  0001 C CNN
	2    13700 2200
	1    0    0    1   
$EndComp
$Comp
L Amplifier_Operational:TL072 U16
U 1 1 5D93B303
P 12100 2100
F 0 "U16" H 12150 1800 50  0000 C CNN
F 1 "TL072" H 12200 1900 50  0000 C CNN
F 2 "Package_DIP:DIP-8_W7.62mm" H 12100 2100 50  0001 C CNN
F 3 "http://www.ti.com/lit/ds/symlink/tl071.pdf" H 12100 2100 50  0001 C CNN
	1    12100 2100
	1    0    0    1   
$EndComp
$Comp
L Amplifier_Operational:TL072 U17
U 3 1 5E5EB21A
P 6000 10250
F 0 "U17" H 6000 10150 50  0000 L CNN
F 1 "TL072" H 6000 10250 50  0000 L CNN
F 2 "Package_DIP:DIP-8_W7.62mm" H 6000 10250 50  0001 C CNN
F 3 "http://www.ti.com/lit/ds/symlink/tl071.pdf" H 6000 10250 50  0001 C CNN
	3    6000 10250
	1    0    0    -1  
$EndComp
$Comp
L Amplifier_Operational:TL072 U16
U 3 1 5E5EBCBE
P 5600 10250
F 0 "U16" H 5558 10296 50  0000 L CNN
F 1 "TL072" H 5558 10205 50  0000 L CNN
F 2 "Package_DIP:DIP-8_W7.62mm" H 5600 10250 50  0001 C CNN
F 3 "http://www.ti.com/lit/ds/symlink/tl071.pdf" H 5600 10250 50  0001 C CNN
	3    5600 10250
	1    0    0    -1  
$EndComp
$Comp
L power:GND #PWR0119
U 1 1 5E6C4938
P 10500 10850
F 0 "#PWR0119" H 10500 10600 50  0001 C CNN
F 1 "GND" H 10505 10677 50  0000 C CNN
F 2 "" H 10500 10850 50  0001 C CNN
F 3 "" H 10500 10850 50  0001 C CNN
	1    10500 10850
	-1   0    0    -1  
$EndComp
$Comp
L power:VDDA #PWR0121
U 1 1 5E7E908D
P 5700 9750
F 0 "#PWR0121" H 5700 9600 50  0001 C CNN
F 1 "VDDA" H 5717 9923 50  0000 C CNN
F 2 "" H 5700 9750 50  0001 C CNN
F 3 "" H 5700 9750 50  0001 C CNN
	1    5700 9750
	1    0    0    -1  
$EndComp
Wire Wire Line
	5500 9950 5500 9850
Wire Wire Line
	5500 9850 5700 9850
Wire Wire Line
	5700 9850 5700 9750
Wire Wire Line
	5700 9850 5900 9850
Connection ~ 5700 9850
Wire Wire Line
	5900 9950 5900 9850
Wire Wire Line
	5700 10750 5700 10650
Wire Wire Line
	5700 10650 5900 10650
Wire Wire Line
	5900 10650 5900 10550
$Comp
L power:VSSA #PWR0122
U 1 1 5E91437A
P 5700 10750
F 0 "#PWR0122" H 5700 10600 50  0001 C CNN
F 1 "VSSA" H 5718 10923 50  0000 C CNN
F 2 "" H 5700 10750 50  0001 C CNN
F 3 "" H 5700 10750 50  0001 C CNN
	1    5700 10750
	-1   0    0    1   
$EndComp
Wire Wire Line
	5500 10650 5500 10550
Wire Wire Line
	5500 10650 5700 10650
Connection ~ 5700 10650
$Comp
L 74xx:74LS139 U7
U 3 1 5EC0F469
P 1550 10300
F 0 "U7" H 1780 10346 50  0000 L CNN
F 1 "74LS139" H 1780 10255 50  0000 L CNN
F 2 "Package_DIP:DIP-16_W7.62mm" H 1550 10300 50  0001 C CNN
F 3 "http://www.ti.com/lit/gpn/sn74LS139" H 1550 10300 50  0001 C CNN
	3    1550 10300
	1    0    0    -1  
$EndComp
Wire Wire Line
	1550 9800 1550 9700
$Comp
L power:VCC #PWR0124
U 1 1 5EC5C8A0
P 1550 9700
F 0 "#PWR0124" H 1550 9550 50  0001 C CNN
F 1 "VCC" H 1567 9873 50  0000 C CNN
F 2 "" H 1550 9700 50  0001 C CNN
F 3 "" H 1550 9700 50  0001 C CNN
	1    1550 9700
	1    0    0    -1  
$EndComp
$Comp
L power:GND #PWR0125
U 1 1 5EC5C9E3
P 1550 10900
F 0 "#PWR0125" H 1550 10650 50  0001 C CNN
F 1 "GND" H 1555 10727 50  0000 C CNN
F 2 "" H 1550 10900 50  0001 C CNN
F 3 "" H 1550 10900 50  0001 C CNN
	1    1550 10900
	1    0    0    -1  
$EndComp
Wire Wire Line
	1550 10900 1550 10800
$Comp
L 74xx:74LS74 U5
U 3 1 5EE2DAE8
P 750 10300
F 0 "U5" H 980 10346 50  0000 L CNN
F 1 "74LS74" H 980 10255 50  0000 L CNN
F 2 "Package_DIP:DIP-14_W7.62mm" H 750 10300 50  0001 C CNN
F 3 "74xx/74hc_hct74.pdf" H 750 10300 50  0001 C CNN
	3    750  10300
	1    0    0    -1  
$EndComp
$Comp
L power:VCC #PWR0126
U 1 1 5EE2DC4D
P 750 9700
F 0 "#PWR0126" H 750 9550 50  0001 C CNN
F 1 "VCC" H 767 9873 50  0000 C CNN
F 2 "" H 750 9700 50  0001 C CNN
F 3 "" H 750 9700 50  0001 C CNN
	1    750  9700
	1    0    0    -1  
$EndComp
$Comp
L power:GND #PWR0127
U 1 1 5EE7B9E0
P 750 10900
F 0 "#PWR0127" H 750 10650 50  0001 C CNN
F 1 "GND" H 755 10727 50  0000 C CNN
F 2 "" H 750 10900 50  0001 C CNN
F 3 "" H 750 10900 50  0001 C CNN
	1    750  10900
	1    0    0    -1  
$EndComp
Wire Wire Line
	750  10700 750  10900
Wire Wire Line
	750  9700 750  9900
Wire Wire Line
	1100 1900 1100 3650
Wire Wire Line
	1200 2000 1600 2000
Wire Wire Line
	1200 2000 1200 3750
Wire Wire Line
	1100 1900 1600 1900
Wire Wire Line
	1600 2200 1300 2200
Wire Wire Line
	1300 2200 1300 3950
Wire Wire Line
	1600 3650 1100 3650
Connection ~ 1100 3650
Wire Wire Line
	1200 2000 1200 1500
Wire Wire Line
	1200 1500 2000 1500
Connection ~ 1200 2000
Connection ~ 2000 1500
Wire Wire Line
	1600 3750 1200 3750
Connection ~ 1200 3750
Wire Wire Line
	1200 3750 1200 5550
Wire Wire Line
	1300 3950 1600 3950
Connection ~ 1300 3950
Wire Wire Line
	1600 5450 1300 5450
Wire Wire Line
	1300 5450 1100 5450
Wire Wire Line
	1600 5550 1200 5550
Wire Wire Line
	1600 5750 1300 5750
Wire Wire Line
	1300 3950 1300 5750
NoConn ~ 5750 7100
NoConn ~ 5750 7300
Wire Wire Line
	11350 7850 11850 7850
Wire Wire Line
	11350 7950 11850 7950
Wire Wire Line
	11350 8150 11850 8150
Wire Wire Line
	11350 8350 11850 8350
Text Label 14850 2200 2    50   ~ 0
V1_VOUT
Wire Wire Line
	14500 2200 14850 2200
Text Label 14850 5400 2    50   ~ 0
V2_VOUT
Wire Wire Line
	14500 5400 14850 5400
$Comp
L Connector_Generic:Conn_01x02 J7
U 1 1 5BEA0D70
P 15050 5400
F 0 "J7" H 15000 5550 50  0000 L CNN
F 1 "V2_OUT" H 14800 5200 50  0000 L CNN
F 2 "Connector_PinHeader_2.54mm:PinHeader_1x02_P2.54mm_Vertical" H 15050 5400 50  0001 C CNN
F 3 "~" H 15050 5400 50  0001 C CNN
	1    15050 5400
	1    0    0    -1  
$EndComp
Wire Wire Line
	15150 6250 15150 4200
Wire Wire Line
	15150 3050 15150 1000
Wire Wire Line
	12300 4200 15150 4200
Wire Wire Line
	12300 1000 15150 1000
Wire Wire Line
	14850 5500 14750 5500
$Comp
L Connector_Generic:Conn_01x02 J6
U 1 1 5BFE0A77
P 15050 2200
F 0 "J6" H 15000 2300 50  0000 L CNN
F 1 "V1_OUT" H 14850 2000 50  0000 L CNN
F 2 "Connector_PinHeader_2.54mm:PinHeader_1x02_P2.54mm_Vertical" H 15050 2200 50  0001 C CNN
F 3 "~" H 15050 2200 50  0001 C CNN
	1    15050 2200
	1    0    0    -1  
$EndComp
Wire Wire Line
	14850 2300 14750 2300
$Comp
L Device:C C5
U 1 1 5C03378F
P 3750 10650
F 0 "C5" H 3865 10696 50  0000 L CNN
F 1 "C" H 3865 10605 50  0000 L CNN
F 2 "Capacitor_SMD:C_0805_2012Metric_Pad1.15x1.50mm_HandSolder" H 3788 10500 50  0001 C CNN
F 3 "~" H 3750 10650 50  0001 C CNN
	1    3750 10650
	1    0    0    -1  
$EndComp
$Comp
L power:GND #PWR0128
U 1 1 5C0338FB
P 3750 10900
F 0 "#PWR0128" H 3750 10650 50  0001 C CNN
F 1 "GND" H 3755 10727 50  0000 C CNN
F 2 "" H 3750 10900 50  0001 C CNN
F 3 "" H 3750 10900 50  0001 C CNN
	1    3750 10900
	1    0    0    -1  
$EndComp
Wire Wire Line
	3750 10900 3750 10800
$Comp
L power:VCC #PWR0129
U 1 1 5C083DDA
P 3750 10400
F 0 "#PWR0129" H 3750 10250 50  0001 C CNN
F 1 "VCC" H 3767 10573 50  0000 C CNN
F 2 "" H 3750 10400 50  0001 C CNN
F 3 "" H 3750 10400 50  0001 C CNN
	1    3750 10400
	1    0    0    -1  
$EndComp
Wire Wire Line
	3750 10400 3750 10500
$Comp
L Device:C C6
U 1 1 5C0D470B
P 4100 10650
F 0 "C6" H 4215 10696 50  0000 L CNN
F 1 "C" H 4215 10605 50  0000 L CNN
F 2 "Capacitor_SMD:C_0805_2012Metric_Pad1.15x1.50mm_HandSolder" H 4138 10500 50  0001 C CNN
F 3 "~" H 4100 10650 50  0001 C CNN
	1    4100 10650
	1    0    0    -1  
$EndComp
$Comp
L power:GND #PWR0130
U 1 1 5C0D4712
P 4100 10900
F 0 "#PWR0130" H 4100 10650 50  0001 C CNN
F 1 "GND" H 4105 10727 50  0000 C CNN
F 2 "" H 4100 10900 50  0001 C CNN
F 3 "" H 4100 10900 50  0001 C CNN
	1    4100 10900
	1    0    0    -1  
$EndComp
Wire Wire Line
	4100 10900 4100 10800
$Comp
L power:VCC #PWR0131
U 1 1 5C0D4719
P 4100 10400
F 0 "#PWR0131" H 4100 10250 50  0001 C CNN
F 1 "VCC" H 4117 10573 50  0000 C CNN
F 2 "" H 4100 10400 50  0001 C CNN
F 3 "" H 4100 10400 50  0001 C CNN
	1    4100 10400
	1    0    0    -1  
$EndComp
Wire Wire Line
	4100 10400 4100 10500
$Comp
L Device:C C7
U 1 1 5C1254A5
P 4450 10650
F 0 "C7" H 4565 10696 50  0000 L CNN
F 1 "C" H 4565 10605 50  0000 L CNN
F 2 "Capacitor_SMD:C_0805_2012Metric_Pad1.15x1.50mm_HandSolder" H 4488 10500 50  0001 C CNN
F 3 "~" H 4450 10650 50  0001 C CNN
	1    4450 10650
	1    0    0    -1  
$EndComp
$Comp
L power:GND #PWR0132
U 1 1 5C1254AB
P 4450 10900
F 0 "#PWR0132" H 4450 10650 50  0001 C CNN
F 1 "GND" H 4455 10727 50  0000 C CNN
F 2 "" H 4450 10900 50  0001 C CNN
F 3 "" H 4450 10900 50  0001 C CNN
	1    4450 10900
	1    0    0    -1  
$EndComp
Wire Wire Line
	4450 10900 4450 10800
$Comp
L power:VCC #PWR0133
U 1 1 5C1254B2
P 4450 10400
F 0 "#PWR0133" H 4450 10250 50  0001 C CNN
F 1 "VCC" H 4467 10573 50  0000 C CNN
F 2 "" H 4450 10400 50  0001 C CNN
F 3 "" H 4450 10400 50  0001 C CNN
	1    4450 10400
	1    0    0    -1  
$EndComp
Wire Wire Line
	4450 10400 4450 10500
$Comp
L Device:C C8
U 1 1 5C1254B9
P 4800 10650
F 0 "C8" H 4915 10696 50  0000 L CNN
F 1 "C" H 4915 10605 50  0000 L CNN
F 2 "Capacitor_SMD:C_0805_2012Metric_Pad1.15x1.50mm_HandSolder" H 4838 10500 50  0001 C CNN
F 3 "~" H 4800 10650 50  0001 C CNN
	1    4800 10650
	1    0    0    -1  
$EndComp
$Comp
L power:GND #PWR0134
U 1 1 5C1254BF
P 4800 10900
F 0 "#PWR0134" H 4800 10650 50  0001 C CNN
F 1 "GND" H 4805 10727 50  0000 C CNN
F 2 "" H 4800 10900 50  0001 C CNN
F 3 "" H 4800 10900 50  0001 C CNN
	1    4800 10900
	1    0    0    -1  
$EndComp
Wire Wire Line
	4800 10900 4800 10800
$Comp
L power:VCC #PWR0135
U 1 1 5C1254C6
P 4800 10400
F 0 "#PWR0135" H 4800 10250 50  0001 C CNN
F 1 "VCC" H 4817 10573 50  0000 C CNN
F 2 "" H 4800 10400 50  0001 C CNN
F 3 "" H 4800 10400 50  0001 C CNN
	1    4800 10400
	1    0    0    -1  
$EndComp
Wire Wire Line
	4800 10400 4800 10500
$Comp
L Device:C C11
U 1 1 5C1C8FF5
P 3400 9650
F 0 "C11" H 3515 9696 50  0000 L CNN
F 1 "C" H 3515 9605 50  0000 L CNN
F 2 "Capacitor_SMD:C_0805_2012Metric_Pad1.15x1.50mm_HandSolder" H 3438 9500 50  0001 C CNN
F 3 "~" H 3400 9650 50  0001 C CNN
	1    3400 9650
	1    0    0    -1  
$EndComp
$Comp
L power:GND #PWR0136
U 1 1 5C1C8FFC
P 3400 9900
F 0 "#PWR0136" H 3400 9650 50  0001 C CNN
F 1 "GND" H 3405 9727 50  0000 C CNN
F 2 "" H 3400 9900 50  0001 C CNN
F 3 "" H 3400 9900 50  0001 C CNN
	1    3400 9900
	1    0    0    -1  
$EndComp
Wire Wire Line
	3400 9900 3400 9800
$Comp
L power:VCC #PWR0137
U 1 1 5C1C9003
P 3400 9400
F 0 "#PWR0137" H 3400 9250 50  0001 C CNN
F 1 "VCC" H 3417 9573 50  0000 C CNN
F 2 "" H 3400 9400 50  0001 C CNN
F 3 "" H 3400 9400 50  0001 C CNN
	1    3400 9400
	1    0    0    -1  
$EndComp
Wire Wire Line
	3400 9400 3400 9500
$Comp
L Device:C C12
U 1 1 5C1C900A
P 3750 9650
F 0 "C12" H 3865 9696 50  0000 L CNN
F 1 "C" H 3865 9605 50  0000 L CNN
F 2 "Capacitor_SMD:C_0805_2012Metric_Pad1.15x1.50mm_HandSolder" H 3788 9500 50  0001 C CNN
F 3 "~" H 3750 9650 50  0001 C CNN
	1    3750 9650
	1    0    0    -1  
$EndComp
$Comp
L power:GND #PWR0138
U 1 1 5C1C9011
P 3750 9900
F 0 "#PWR0138" H 3750 9650 50  0001 C CNN
F 1 "GND" H 3755 9727 50  0000 C CNN
F 2 "" H 3750 9900 50  0001 C CNN
F 3 "" H 3750 9900 50  0001 C CNN
	1    3750 9900
	1    0    0    -1  
$EndComp
Wire Wire Line
	3750 9900 3750 9800
$Comp
L power:VCC #PWR0139
U 1 1 5C1C9018
P 3750 9400
F 0 "#PWR0139" H 3750 9250 50  0001 C CNN
F 1 "VCC" H 3767 9573 50  0000 C CNN
F 2 "" H 3750 9400 50  0001 C CNN
F 3 "" H 3750 9400 50  0001 C CNN
	1    3750 9400
	1    0    0    -1  
$EndComp
Wire Wire Line
	3750 9400 3750 9500
$Comp
L Device:C C13
U 1 1 5C1C901F
P 4100 9650
F 0 "C13" H 4215 9696 50  0000 L CNN
F 1 "C" H 4215 9605 50  0000 L CNN
F 2 "Capacitor_SMD:C_0805_2012Metric_Pad1.15x1.50mm_HandSolder" H 4138 9500 50  0001 C CNN
F 3 "~" H 4100 9650 50  0001 C CNN
	1    4100 9650
	1    0    0    -1  
$EndComp
$Comp
L power:GND #PWR0140
U 1 1 5C1C9026
P 4100 9900
F 0 "#PWR0140" H 4100 9650 50  0001 C CNN
F 1 "GND" H 4105 9727 50  0000 C CNN
F 2 "" H 4100 9900 50  0001 C CNN
F 3 "" H 4100 9900 50  0001 C CNN
	1    4100 9900
	1    0    0    -1  
$EndComp
Wire Wire Line
	4100 9900 4100 9800
$Comp
L power:VCC #PWR0141
U 1 1 5C1C902D
P 4100 9400
F 0 "#PWR0141" H 4100 9250 50  0001 C CNN
F 1 "VCC" H 4117 9573 50  0000 C CNN
F 2 "" H 4100 9400 50  0001 C CNN
F 3 "" H 4100 9400 50  0001 C CNN
	1    4100 9400
	1    0    0    -1  
$EndComp
Wire Wire Line
	4100 9400 4100 9500
$Comp
L Device:C C14
U 1 1 5C1C9034
P 4450 9650
F 0 "C14" H 4565 9696 50  0000 L CNN
F 1 "C" H 4565 9605 50  0000 L CNN
F 2 "Capacitor_SMD:C_0805_2012Metric_Pad1.15x1.50mm_HandSolder" H 4488 9500 50  0001 C CNN
F 3 "~" H 4450 9650 50  0001 C CNN
	1    4450 9650
	1    0    0    -1  
$EndComp
$Comp
L power:GND #PWR0142
U 1 1 5C1C903B
P 4450 9900
F 0 "#PWR0142" H 4450 9650 50  0001 C CNN
F 1 "GND" H 4455 9727 50  0000 C CNN
F 2 "" H 4450 9900 50  0001 C CNN
F 3 "" H 4450 9900 50  0001 C CNN
	1    4450 9900
	1    0    0    -1  
$EndComp
Wire Wire Line
	4450 9900 4450 9800
$Comp
L power:VCC #PWR0143
U 1 1 5C1C9042
P 4450 9400
F 0 "#PWR0143" H 4450 9250 50  0001 C CNN
F 1 "VCC" H 4467 9573 50  0000 C CNN
F 2 "" H 4450 9400 50  0001 C CNN
F 3 "" H 4450 9400 50  0001 C CNN
	1    4450 9400
	1    0    0    -1  
$EndComp
Wire Wire Line
	4450 9400 4450 9500
$Comp
L Device:C C3
U 1 1 5C21C586
P 3050 10650
F 0 "C3" H 3165 10696 50  0000 L CNN
F 1 "C" H 3165 10605 50  0000 L CNN
F 2 "Capacitor_SMD:C_0805_2012Metric_Pad1.15x1.50mm_HandSolder" H 3088 10500 50  0001 C CNN
F 3 "~" H 3050 10650 50  0001 C CNN
	1    3050 10650
	1    0    0    -1  
$EndComp
$Comp
L power:GND #PWR0144
U 1 1 5C21C58C
P 3050 10900
F 0 "#PWR0144" H 3050 10650 50  0001 C CNN
F 1 "GND" H 3055 10727 50  0000 C CNN
F 2 "" H 3050 10900 50  0001 C CNN
F 3 "" H 3050 10900 50  0001 C CNN
	1    3050 10900
	1    0    0    -1  
$EndComp
Wire Wire Line
	3050 10900 3050 10800
$Comp
L power:VCC #PWR0145
U 1 1 5C21C593
P 3050 10400
F 0 "#PWR0145" H 3050 10250 50  0001 C CNN
F 1 "VCC" H 3067 10573 50  0000 C CNN
F 2 "" H 3050 10400 50  0001 C CNN
F 3 "" H 3050 10400 50  0001 C CNN
	1    3050 10400
	1    0    0    -1  
$EndComp
Wire Wire Line
	3050 10400 3050 10500
$Comp
L Device:C C4
U 1 1 5C21C59A
P 3400 10650
F 0 "C4" H 3515 10696 50  0000 L CNN
F 1 "C" H 3515 10605 50  0000 L CNN
F 2 "Capacitor_SMD:C_0805_2012Metric_Pad1.15x1.50mm_HandSolder" H 3438 10500 50  0001 C CNN
F 3 "~" H 3400 10650 50  0001 C CNN
	1    3400 10650
	1    0    0    -1  
$EndComp
$Comp
L power:GND #PWR0146
U 1 1 5C21C5A0
P 3400 10900
F 0 "#PWR0146" H 3400 10650 50  0001 C CNN
F 1 "GND" H 3405 10727 50  0000 C CNN
F 2 "" H 3400 10900 50  0001 C CNN
F 3 "" H 3400 10900 50  0001 C CNN
	1    3400 10900
	1    0    0    -1  
$EndComp
Wire Wire Line
	3400 10900 3400 10800
$Comp
L power:VCC #PWR0147
U 1 1 5C21C5A7
P 3400 10400
F 0 "#PWR0147" H 3400 10250 50  0001 C CNN
F 1 "VCC" H 3417 10573 50  0000 C CNN
F 2 "" H 3400 10400 50  0001 C CNN
F 3 "" H 3400 10400 50  0001 C CNN
	1    3400 10400
	1    0    0    -1  
$EndComp
Wire Wire Line
	3400 10400 3400 10500
$Comp
L Device:C C9
U 1 1 5C21C5AE
P 5150 10650
F 0 "C9" H 5265 10696 50  0000 L CNN
F 1 "C" H 5265 10605 50  0000 L CNN
F 2 "Capacitor_SMD:C_0805_2012Metric_Pad1.15x1.50mm_HandSolder" H 5188 10500 50  0001 C CNN
F 3 "~" H 5150 10650 50  0001 C CNN
	1    5150 10650
	1    0    0    -1  
$EndComp
$Comp
L power:GND #PWR0148
U 1 1 5C21C5B4
P 5150 10900
F 0 "#PWR0148" H 5150 10650 50  0001 C CNN
F 1 "GND" H 5155 10727 50  0000 C CNN
F 2 "" H 5150 10900 50  0001 C CNN
F 3 "" H 5150 10900 50  0001 C CNN
	1    5150 10900
	1    0    0    -1  
$EndComp
Wire Wire Line
	5150 10900 5150 10800
$Comp
L power:VCC #PWR0149
U 1 1 5C21C5BB
P 5150 10400
F 0 "#PWR0149" H 5150 10250 50  0001 C CNN
F 1 "VCC" H 5167 10573 50  0000 C CNN
F 2 "" H 5150 10400 50  0001 C CNN
F 3 "" H 5150 10400 50  0001 C CNN
	1    5150 10400
	1    0    0    -1  
$EndComp
Wire Wire Line
	5150 10400 5150 10500
$Comp
L Device:C C10
U 1 1 5C21C5C2
P 3050 9650
F 0 "C10" H 3165 9696 50  0000 L CNN
F 1 "C" H 3165 9605 50  0000 L CNN
F 2 "Capacitor_SMD:C_0805_2012Metric_Pad1.15x1.50mm_HandSolder" H 3088 9500 50  0001 C CNN
F 3 "~" H 3050 9650 50  0001 C CNN
	1    3050 9650
	1    0    0    -1  
$EndComp
$Comp
L power:GND #PWR0150
U 1 1 5C21C5C8
P 3050 9900
F 0 "#PWR0150" H 3050 9650 50  0001 C CNN
F 1 "GND" H 3055 9727 50  0000 C CNN
F 2 "" H 3050 9900 50  0001 C CNN
F 3 "" H 3050 9900 50  0001 C CNN
	1    3050 9900
	1    0    0    -1  
$EndComp
Wire Wire Line
	3050 9900 3050 9800
$Comp
L power:VCC #PWR0151
U 1 1 5C21C5CF
P 3050 9400
F 0 "#PWR0151" H 3050 9250 50  0001 C CNN
F 1 "VCC" H 3067 9573 50  0000 C CNN
F 2 "" H 3050 9400 50  0001 C CNN
F 3 "" H 3050 9400 50  0001 C CNN
	1    3050 9400
	1    0    0    -1  
$EndComp
Wire Wire Line
	3050 9400 3050 9500
$Comp
L power:GNDA #PWR0152
U 1 1 5C4CB108
P 11100 3450
F 0 "#PWR0152" H 11100 3200 50  0001 C CNN
F 1 "GNDA" H 11105 3277 50  0000 C CNN
F 2 "" H 11100 3450 50  0001 C CNN
F 3 "" H 11100 3450 50  0001 C CNN
	1    11100 3450
	1    0    0    -1  
$EndComp
Wire Wire Line
	11100 3450 11100 3350
Wire Wire Line
	13300 3050 14450 3050
$Comp
L Device:Jumper_NO_Small JP1
U 1 1 5C82E40F
P 14650 2300
F 0 "JP1" H 14650 2200 50  0000 C CNN
F 1 "_" H 14650 2394 50  0001 C CNN
F 2 "Connector_PinHeader_2.54mm:PinHeader_1x02_P2.54mm_Vertical" H 14650 2300 50  0001 C CNN
F 3 "~" H 14650 2300 50  0001 C CNN
	1    14650 2300
	1    0    0    -1  
$EndComp
Wire Wire Line
	14550 2300 14450 2300
Wire Wire Line
	14450 2300 14450 3050
Connection ~ 14450 3050
Wire Wire Line
	14450 3050 15150 3050
$Comp
L Device:Jumper_NO_Small JP2
U 1 1 5C885D0F
P 14650 5500
F 0 "JP2" H 14650 5400 50  0000 C CNN
F 1 "_" H 14650 5594 50  0001 C CNN
F 2 "Connector_PinHeader_2.54mm:PinHeader_1x02_P2.54mm_Vertical" H 14650 5500 50  0001 C CNN
F 3 "~" H 14650 5500 50  0001 C CNN
	1    14650 5500
	1    0    0    -1  
$EndComp
Wire Wire Line
	14550 5500 14450 5500
Wire Wire Line
	14450 5500 14450 6250
Wire Wire Line
	13300 6250 14450 6250
Connection ~ 14450 6250
Wire Wire Line
	14450 6250 15150 6250
$Comp
L Device:Jumper_NO_Small JP4
U 1 1 5C8DED7C
P 11100 3250
F 0 "JP4" V 11100 3298 50  0000 L CNN
F 1 "Jumper_NO_Small" V 11145 3298 50  0001 L CNN
F 2 "Connector_PinHeader_2.54mm:PinHeader_1x02_P2.54mm_Vertical" H 11100 3250 50  0001 C CNN
F 3 "~" H 11100 3250 50  0001 C CNN
	1    11100 3250
	0    1    1    0   
$EndComp
$Comp
L Device:Jumper_NO_Small JP3
U 1 1 5C98F772
P 10350 10750
F 0 "JP3" H 10350 10850 50  0000 C CNN
F 1 "_" H 10350 10844 50  0001 C CNN
F 2 "Connector_PinHeader_2.54mm:PinHeader_1x02_P2.54mm_Vertical" H 10350 10750 50  0001 C CNN
F 3 "~" H 10350 10750 50  0001 C CNN
	1    10350 10750
	-1   0    0    -1  
$EndComp
Wire Wire Line
	10500 10750 10500 10850
$Comp
L Device:C C15
U 1 1 5CA9940A
P 6800 10050
F 0 "C15" H 6915 10096 50  0000 L CNN
F 1 "C" H 6915 10005 50  0000 L CNN
F 2 "Capacitor_SMD:C_0805_2012Metric_Pad1.15x1.50mm_HandSolder" H 6838 9900 50  0001 C CNN
F 3 "~" H 6800 10050 50  0001 C CNN
	1    6800 10050
	1    0    0    -1  
$EndComp
$Comp
L power:VDDA #PWR01
U 1 1 5CB4884B
P 6800 9800
F 0 "#PWR01" H 6800 9650 50  0001 C CNN
F 1 "VDDA" H 6817 9973 50  0000 C CNN
F 2 "" H 6800 9800 50  0001 C CNN
F 3 "" H 6800 9800 50  0001 C CNN
	1    6800 9800
	1    0    0    -1  
$EndComp
Wire Wire Line
	6800 9900 6800 9800
$Comp
L power:VSSA #PWR02
U 1 1 5CBA0557
P 6800 10950
F 0 "#PWR02" H 6800 10800 50  0001 C CNN
F 1 "VSSA" H 6818 11123 50  0000 C CNN
F 2 "" H 6800 10950 50  0001 C CNN
F 3 "" H 6800 10950 50  0001 C CNN
	1    6800 10950
	-1   0    0    1   
$EndComp
$Comp
L Device:C C16
U 1 1 5CBF8653
P 7200 10050
F 0 "C16" H 7315 10096 50  0000 L CNN
F 1 "C" H 7315 10005 50  0000 L CNN
F 2 "Capacitor_SMD:C_0805_2012Metric_Pad1.15x1.50mm_HandSolder" H 7238 9900 50  0001 C CNN
F 3 "~" H 7200 10050 50  0001 C CNN
	1    7200 10050
	1    0    0    -1  
$EndComp
$Comp
L power:VDDA #PWR03
U 1 1 5CBF8659
P 7200 9800
F 0 "#PWR03" H 7200 9650 50  0001 C CNN
F 1 "VDDA" H 7217 9973 50  0000 C CNN
F 2 "" H 7200 9800 50  0001 C CNN
F 3 "" H 7200 9800 50  0001 C CNN
	1    7200 9800
	1    0    0    -1  
$EndComp
Wire Wire Line
	7200 9900 7200 9800
$Comp
L power:VSSA #PWR04
U 1 1 5CBF8661
P 7200 10950
F 0 "#PWR04" H 7200 10800 50  0001 C CNN
F 1 "VSSA" H 7218 11123 50  0000 C CNN
F 2 "" H 7200 10950 50  0001 C CNN
F 3 "" H 7200 10950 50  0001 C CNN
	1    7200 10950
	-1   0    0    1   
$EndComp
$Comp
L Device:R_POT_TRIM RV1
U 1 1 5CCAA9C7
P 11500 1100
F 0 "RV1" H 11430 1146 50  0000 R CNN
F 1 "2k" H 11430 1055 50  0000 R CNN
F 2 "Potentiometer_THT:Potentiometer_Vishay_T73XX_Horizontal" H 11500 1100 50  0001 C CNN
F 3 "~" H 11500 1100 50  0001 C CNN
	1    11500 1100
	1    0    0    -1  
$EndComp
Wire Wire Line
	11500 1250 11650 1250
Wire Wire Line
	11650 1250 11650 1100
Connection ~ 11500 1250
$Comp
L Device:R_POT_TRIM RV2
U 1 1 5CD03816
P 11500 4300
F 0 "RV2" H 11430 4346 50  0000 R CNN
F 1 "2k" H 11430 4255 50  0000 R CNN
F 2 "Potentiometer_THT:Potentiometer_Vishay_T73XX_Horizontal" H 11500 4300 50  0001 C CNN
F 3 "~" H 11500 4300 50  0001 C CNN
	1    11500 4300
	1    0    0    -1  
$EndComp
Wire Wire Line
	11500 4450 11650 4450
Wire Wire Line
	11650 4450 11650 4300
Connection ~ 11500 4450
$Comp
L 74xx:74LS08 U1
U 1 1 5CD5E66D
P 5650 2800
F 0 "U1" H 5650 3125 50  0000 C CNN
F 1 "74LS08" H 5650 3034 50  0000 C CNN
F 2 "Package_DIP:DIP-14_W7.62mm" H 5650 2800 50  0001 C CNN
F 3 "http://www.ti.com/lit/gpn/sn74LS08" H 5650 2800 50  0001 C CNN
	1    5650 2800
	1    0    0    -1  
$EndComp
Connection ~ 4000 2050
Wire Wire Line
	4000 2050 4200 2050
Wire Wire Line
	4000 2050 4000 2900
Wire Wire Line
	6100 2600 6350 2600
Wire Wire Line
	6050 2800 6050 2500
Wire Wire Line
	5250 2700 5250 2450
Wire Wire Line
	5250 2450 5000 2450
Wire Wire Line
	5950 2800 6050 2800
Wire Wire Line
	5350 2700 5250 2700
Wire Wire Line
	5350 2900 4000 2900
Text Label 5250 5650 2    50   ~ 0
V2_OF
$Comp
L 74xx:74LS08 U1
U 2 1 5D14C677
P 5650 6000
F 0 "U1" H 5650 6325 50  0000 C CNN
F 1 "74LS08" H 5650 6234 50  0000 C CNN
F 2 "Package_DIP:DIP-14_W7.62mm" H 5650 6000 50  0001 C CNN
F 3 "http://www.ti.com/lit/gpn/sn74LS08" H 5650 6000 50  0001 C CNN
	2    5650 6000
	1    0    0    -1  
$EndComp
Wire Wire Line
	5250 5900 5250 5650
Wire Wire Line
	5250 5650 5000 5650
Wire Wire Line
	5950 6000 6050 6000
Wire Wire Line
	5350 5900 5250 5900
Wire Wire Line
	5350 6100 4000 6100
Wire Wire Line
	6050 5700 6050 6000
Wire Wire Line
	6100 5800 6350 5800
Wire Wire Line
	4000 6100 4000 5250
Connection ~ 4000 5250
Wire Wire Line
	4000 5250 4200 5250
$Comp
L 74xx:74LS08 U1
U 5 1 5D2C8A33
P 2350 10300
F 0 "U1" H 2580 10346 50  0000 L CNN
F 1 "74LS08" H 2580 10255 50  0000 L CNN
F 2 "Package_DIP:DIP-14_W7.62mm" H 2350 10300 50  0001 C CNN
F 3 "http://www.ti.com/lit/gpn/sn74LS08" H 2350 10300 50  0001 C CNN
	5    2350 10300
	1    0    0    -1  
$EndComp
Wire Wire Line
	2350 9800 2350 9700
$Comp
L power:VCC #PWR0101
U 1 1 5D2C8B76
P 2350 9700
F 0 "#PWR0101" H 2350 9550 50  0001 C CNN
F 1 "VCC" H 2367 9873 50  0000 C CNN
F 2 "" H 2350 9700 50  0001 C CNN
F 3 "" H 2350 9700 50  0001 C CNN
	1    2350 9700
	1    0    0    -1  
$EndComp
$Comp
L power:GND #PWR0153
U 1 1 5D2C8B7C
P 2350 10900
F 0 "#PWR0153" H 2350 10650 50  0001 C CNN
F 1 "GND" H 2355 10727 50  0000 C CNN
F 2 "" H 2350 10900 50  0001 C CNN
F 3 "" H 2350 10900 50  0001 C CNN
	1    2350 10900
	1    0    0    -1  
$EndComp
Wire Wire Line
	2350 10900 2350 10800
$Comp
L Device:C C17
U 1 1 5D3E7414
P 4850 9650
F 0 "C17" H 4965 9696 50  0000 L CNN
F 1 "C" H 4965 9605 50  0000 L CNN
F 2 "Capacitor_SMD:C_0805_2012Metric_Pad1.15x1.50mm_HandSolder" H 4888 9500 50  0001 C CNN
F 3 "~" H 4850 9650 50  0001 C CNN
	1    4850 9650
	1    0    0    -1  
$EndComp
$Comp
L power:GND #PWR0154
U 1 1 5D3E741A
P 4850 9900
F 0 "#PWR0154" H 4850 9650 50  0001 C CNN
F 1 "GND" H 4855 9727 50  0000 C CNN
F 2 "" H 4850 9900 50  0001 C CNN
F 3 "" H 4850 9900 50  0001 C CNN
	1    4850 9900
	1    0    0    -1  
$EndComp
Wire Wire Line
	4850 9900 4850 9800
$Comp
L power:VCC #PWR0155
U 1 1 5D3E7421
P 4850 9400
F 0 "#PWR0155" H 4850 9250 50  0001 C CNN
F 1 "VCC" H 4867 9573 50  0000 C CNN
F 2 "" H 4850 9400 50  0001 C CNN
F 3 "" H 4850 9400 50  0001 C CNN
	1    4850 9400
	1    0    0    -1  
$EndComp
Wire Wire Line
	4850 9400 4850 9500
$Comp
L 74xx:74LS08 U1
U 3 1 5D446DF9
P 1600 7800
F 0 "U1" H 1600 8125 50  0000 C CNN
F 1 "74LS08" H 1600 8034 50  0000 C CNN
F 2 "Package_DIP:DIP-14_W7.62mm" H 1600 7800 50  0001 C CNN
F 3 "http://www.ti.com/lit/gpn/sn74LS08" H 1600 7800 50  0001 C CNN
	3    1600 7800
	1    0    0    -1  
$EndComp
$Comp
L 74xx:74LS08 U1
U 4 1 5D446F18
P 1600 8400
F 0 "U1" H 1600 8725 50  0000 C CNN
F 1 "74LS08" H 1600 8634 50  0000 C CNN
F 2 "Package_DIP:DIP-14_W7.62mm" H 1600 8400 50  0001 C CNN
F 3 "http://www.ti.com/lit/gpn/sn74LS08" H 1600 8400 50  0001 C CNN
	4    1600 8400
	1    0    0    -1  
$EndComp
Wire Wire Line
	1200 7900 1300 7900
Wire Wire Line
	1300 7700 1200 7700
Wire Wire Line
	1200 7700 1200 7900
Wire Wire Line
	1200 7900 1200 8300
Wire Wire Line
	1200 8300 1300 8300
Connection ~ 1200 7900
Wire Wire Line
	1300 8500 1200 8500
Wire Wire Line
	1200 8500 1200 8300
Connection ~ 1200 8300
Wire Wire Line
	1200 8500 1200 8600
Connection ~ 1200 8500
$Comp
L power:GND #PWR0156
U 1 1 5D80F065
P 1200 8600
F 0 "#PWR0156" H 1200 8350 50  0001 C CNN
F 1 "GND" H 1205 8427 50  0000 C CNN
F 2 "" H 1200 8600 50  0001 C CNN
F 3 "" H 1200 8600 50  0001 C CNN
	1    1200 8600
	1    0    0    -1  
$EndComp
NoConn ~ 1900 8400
NoConn ~ 1900 7800
$Comp
L Mechanical:MountingHole MH1
U 1 1 5D9FEE9D
P 11450 9250
F 0 "MH1" H 11550 9250 50  0000 L CNN
F 1 "MountingHole" H 11550 9205 50  0001 L CNN
F 2 "MountingHole:MountingHole_3.2mm_M3_DIN965" H 11450 9250 50  0001 C CNN
F 3 "~" H 11450 9250 50  0001 C CNN
	1    11450 9250
	1    0    0    -1  
$EndComp
$Comp
L Mechanical:MountingHole MH3
U 1 1 5D9FF3B7
P 11850 9250
F 0 "MH3" H 11950 9250 50  0000 L CNN
F 1 "MountingHole" H 11950 9205 50  0001 L CNN
F 2 "MountingHole:MountingHole_3.2mm_M3_DIN965" H 11850 9250 50  0001 C CNN
F 3 "~" H 11850 9250 50  0001 C CNN
	1    11850 9250
	1    0    0    -1  
$EndComp
$Comp
L Mechanical:MountingHole MH2
U 1 1 5DA61C80
P 11450 9450
F 0 "MH2" H 11550 9450 50  0000 L CNN
F 1 "MountingHole" H 11550 9405 50  0001 L CNN
F 2 "MountingHole:MountingHole_3.2mm_M3_DIN965" H 11450 9450 50  0001 C CNN
F 3 "~" H 11450 9450 50  0001 C CNN
	1    11450 9450
	1    0    0    -1  
$EndComp
$Comp
L Mechanical:MountingHole MH4
U 1 1 5DA61C86
P 11850 9450
F 0 "MH4" H 11950 9450 50  0000 L CNN
F 1 "MountingHole" H 11950 9405 50  0001 L CNN
F 2 "MountingHole:MountingHole_3.2mm_M3_DIN965" H 11850 9450 50  0001 C CNN
F 3 "~" H 11850 9450 50  0001 C CNN
	1    11850 9450
	1    0    0    -1  
$EndComp
$Comp
L Mechanical:MountingHole MH5
U 1 1 5DB26D4C
P 12250 9250
F 0 "MH5" H 12350 9250 50  0000 L CNN
F 1 "MountingHole" H 12350 9205 50  0001 L CNN
F 2 "MountingHole:MountingHole_3.2mm_M3_DIN965" H 12250 9250 50  0001 C CNN
F 3 "~" H 12250 9250 50  0001 C CNN
	1    12250 9250
	1    0    0    -1  
$EndComp
$Comp
L Mechanical:MountingHole MH6
U 1 1 5DB26D52
P 12250 9450
F 0 "MH6" H 12350 9450 50  0000 L CNN
F 1 "MountingHole" H 12350 9405 50  0001 L CNN
F 2 "MountingHole:MountingHole_3.2mm_M3_DIN965" H 12250 9450 50  0001 C CNN
F 3 "~" H 12250 9450 50  0001 C CNN
	1    12250 9450
	1    0    0    -1  
$EndComp
Wire Notes Line
	10250 6900 16050 6900
Text Notes 15350 6850 0    50   ~ 0
ANALOG WARMTH
Wire Wire Line
	3550 8150 3900 8150
Wire Wire Line
	3550 7300 3900 7300
Wire Wire Line
	13550 9600 12850 9600
Connection ~ 12850 9600
Wire Wire Line
	12850 9600 12850 9750
Wire Wire Line
	750  3450 1600 3450
Text Label 2900 2600 2    50   ~ 0
SPI_CHAIN2
Wire Wire Line
	2400 2600 2900 2600
Text Label 2900 6150 2    50   ~ 0
SPI_CHAIN1
Text Label 750  3450 0    50   ~ 0
SPI_CHAIN2
Wire Wire Line
	1100 3650 1100 5450
Wire Wire Line
	1000 5250 1600 5250
Text Label 1000 1700 0    50   ~ 0
SPI_CHAIN1
Wire Wire Line
	1000 1700 1600 1700
Wire Wire Line
	2400 6150 2900 6150
NoConn ~ 2400 4350
Connection ~ 12000 1200
Wire Wire Line
	12000 1200 13300 1200
Wire Wire Line
	11700 1200 11700 1350
Wire Wire Line
	11700 1200 12000 1200
Wire Wire Line
	11700 1600 11800 1600
Wire Wire Line
	11800 1000 11800 1600
Connection ~ 11800 1600
Wire Wire Line
	11800 1600 12500 1600
Wire Wire Line
	11750 4400 11750 4550
Wire Wire Line
	11750 4400 11800 4400
Wire Wire Line
	11800 4400 12000 4400
Connection ~ 11800 4800
Wire Wire Line
	11800 4200 11800 4800
Wire Wire Line
	11800 4800 12500 4800
Wire Wire Line
	12000 4400 12000 4200
Connection ~ 12000 4400
Wire Wire Line
	12000 4400 13300 4400
Wire Wire Line
	11100 3150 11100 3050
Connection ~ 11100 3050
Text Label 11200 3050 0    50   ~ 0
V1_AGND
$Comp
L power:GNDA #PWR05
U 1 1 5C24FEF9
P 11100 6650
F 0 "#PWR05" H 11100 6400 50  0001 C CNN
F 1 "GNDA" H 11105 6477 50  0000 C CNN
F 2 "" H 11100 6650 50  0001 C CNN
F 3 "" H 11100 6650 50  0001 C CNN
	1    11100 6650
	1    0    0    -1  
$EndComp
Wire Wire Line
	11100 6650 11100 6550
$Comp
L Device:Jumper_NO_Small JP5
U 1 1 5C24FF00
P 11100 6450
F 0 "JP5" V 11100 6498 50  0000 L CNN
F 1 "Jumper_NO_Small" V 11145 6498 50  0001 L CNN
F 2 "Connector_PinHeader_2.54mm:PinHeader_1x02_P2.54mm_Vertical" H 11100 6450 50  0001 C CNN
F 3 "~" H 11100 6450 50  0001 C CNN
	1    11100 6450
	0    1    1    0   
$EndComp
Wire Wire Line
	11100 6350 11100 6250
Wire Notes Line
	10250 550  10250 6900
$Comp
L Device:C C20
U 1 1 5C4385DA
P 6800 10700
F 0 "C20" H 6915 10746 50  0000 L CNN
F 1 "C" H 6915 10655 50  0000 L CNN
F 2 "Capacitor_SMD:C_0805_2012Metric_Pad1.15x1.50mm_HandSolder" H 6838 10550 50  0001 C CNN
F 3 "~" H 6800 10700 50  0001 C CNN
	1    6800 10700
	1    0    0    -1  
$EndComp
Wire Wire Line
	6800 10950 6800 10850
$Comp
L Device:C C21
U 1 1 5C4385E2
P 7200 10700
F 0 "C21" H 7315 10746 50  0000 L CNN
F 1 "C" H 7315 10655 50  0000 L CNN
F 2 "Capacitor_SMD:C_0805_2012Metric_Pad1.15x1.50mm_HandSolder" H 7238 10550 50  0001 C CNN
F 3 "~" H 7200 10700 50  0001 C CNN
	1    7200 10700
	1    0    0    -1  
$EndComp
Wire Wire Line
	7200 10950 7200 10850
Text Label 11200 6250 0    50   ~ 0
V2_AGND
Text Label 6800 10550 1    50   ~ 0
V1_AGND
Wire Wire Line
	6800 10200 6800 10450
Text Label 7200 10550 1    50   ~ 0
V2_AGND
Wire Wire Line
	7200 10200 7200 10450
$Comp
L Device:C C18
U 1 1 5C8D3D75
P 6350 10050
F 0 "C18" H 6465 10096 50  0000 L CNN
F 1 "C" H 6465 10005 50  0000 L CNN
F 2 "Capacitor_SMD:C_0805_2012Metric_Pad1.15x1.50mm_HandSolder" H 6388 9900 50  0001 C CNN
F 3 "~" H 6350 10050 50  0001 C CNN
	1    6350 10050
	1    0    0    -1  
$EndComp
$Comp
L power:VCC #PWR06
U 1 1 5C8D3D82
P 6350 9800
F 0 "#PWR06" H 6350 9650 50  0001 C CNN
F 1 "VCC" H 6367 9973 50  0000 C CNN
F 2 "" H 6350 9800 50  0001 C CNN
F 3 "" H 6350 9800 50  0001 C CNN
	1    6350 9800
	1    0    0    -1  
$EndComp
Wire Wire Line
	6350 9800 6350 9900
$Comp
L Device:C C19
U 1 1 5C8D3D89
P 7650 10050
F 0 "C19" H 7765 10096 50  0000 L CNN
F 1 "C" H 7765 10005 50  0000 L CNN
F 2 "Capacitor_SMD:C_0805_2012Metric_Pad1.15x1.50mm_HandSolder" H 7688 9900 50  0001 C CNN
F 3 "~" H 7650 10050 50  0001 C CNN
	1    7650 10050
	1    0    0    -1  
$EndComp
$Comp
L power:VCC #PWR08
U 1 1 5C8D3D96
P 7650 9800
F 0 "#PWR08" H 7650 9650 50  0001 C CNN
F 1 "VCC" H 7667 9973 50  0000 C CNN
F 2 "" H 7650 9800 50  0001 C CNN
F 3 "" H 7650 9800 50  0001 C CNN
	1    7650 9800
	1    0    0    -1  
$EndComp
Wire Wire Line
	7650 9800 7650 9900
Wire Wire Line
	10300 3050 10300 2600
Wire Wire Line
	11100 3050 10300 3050
Wire Wire Line
	10300 6250 11100 6250
Connection ~ 11100 6250
Wire Wire Line
	6350 10200 6350 10450
Wire Wire Line
	6350 10450 6800 10450
Connection ~ 6800 10450
Wire Wire Line
	6800 10450 6800 10550
Wire Wire Line
	7650 10200 7650 10450
Wire Wire Line
	7650 10450 7200 10450
Connection ~ 7200 10450
Wire Wire Line
	7200 10450 7200 10550
$Comp
L Regulator_Linear:LM1117-5.0 U2
U 1 1 5D15C008
P 10700 10250
F 0 "U2" H 10550 10000 50  0000 C CNN
F 1 "LM1117-5.0" H 10700 10401 50  0000 C CNN
F 2 "Package_TO_SOT_SMD:TO-252-2" H 10700 10250 50  0001 C CNN
F 3 "http://www.ti.com/lit/ds/symlink/lm1117.pdf" H 10700 10250 50  0001 C CNN
	1    10700 10250
	1    0    0    -1  
$EndComp
$Comp
L Device:CP C22
U 1 1 5D15C63F
P 10200 10500
F 0 "C22" H 10318 10546 50  0000 L CNN
F 1 "CP" H 10318 10455 50  0000 L CNN
F 2 "Capacitor_THT:CP_Radial_D8.0mm_P5.00mm" H 10238 10350 50  0001 C CNN
F 3 "~" H 10200 10500 50  0001 C CNN
	1    10200 10500
	1    0    0    -1  
$EndComp
$Comp
L Connector_Generic:Conn_02x05_Odd_Even J1
U 1 1 5D1BEF05
P 9100 10450
F 0 "J1" H 9150 10025 50  0000 C CNN
F 1 "POWER" H 9150 10116 50  0000 C CNN
F 2 "Connector_PinHeader_2.54mm:PinHeader_2x05_P2.54mm_Vertical" H 9100 10450 50  0001 C CNN
F 3 "~" H 9100 10450 50  0001 C CNN
	1    9100 10450
	-1   0    0    1   
$EndComp
Wire Wire Line
	8800 10650 9300 10650
Wire Wire Line
	8800 10550 9300 10550
Wire Wire Line
	9300 10450 8800 10450
Wire Wire Line
	8800 10350 9300 10350
Wire Wire Line
	9300 10250 8800 10250
$Comp
L Device:D D1
U 1 1 5D79FB7D
P 9550 10250
F 0 "D1" H 9550 10466 50  0000 C CNN
F 1 "D" H 9550 10375 50  0000 C CNN
F 2 "Diode_THT:D_DO-41_SOD81_P7.62mm_Horizontal" H 9550 10250 50  0001 C CNN
F 3 "~" H 9550 10250 50  0001 C CNN
	1    9550 10250
	1    0    0    -1  
$EndComp
Wire Wire Line
	9400 10250 9300 10250
Connection ~ 9300 10250
Wire Wire Line
	9300 10350 9300 10450
Connection ~ 9300 10350
Connection ~ 9300 10450
Wire Wire Line
	9300 10550 9300 10450
Connection ~ 9300 10550
$Comp
L Device:D D2
U 1 1 5D8CE028
P 9550 10650
F 0 "D2" H 9550 10434 50  0000 C CNN
F 1 "D" H 9550 10525 50  0000 C CNN
F 2 "Diode_THT:D_DO-41_SOD81_P7.62mm_Horizontal" H 9550 10650 50  0001 C CNN
F 3 "~" H 9550 10650 50  0001 C CNN
	1    9550 10650
	-1   0    0    1   
$EndComp
Wire Wire Line
	9300 10650 9400 10650
Connection ~ 9300 10650
Wire Wire Line
	9700 10250 9800 10250
Wire Wire Line
	9800 10250 9800 10150
$Comp
L power:VDDA #PWR0120
U 1 1 5DB83B71
P 9800 10150
F 0 "#PWR0120" H 9800 10000 50  0001 C CNN
F 1 "VDDA" H 9817 10323 50  0000 C CNN
F 2 "" H 9800 10150 50  0001 C CNN
F 3 "" H 9800 10150 50  0001 C CNN
	1    9800 10150
	1    0    0    -1  
$EndComp
$Comp
L power:VSSA #PWR0123
U 1 1 5DB83CE9
P 9800 10750
F 0 "#PWR0123" H 9800 10600 50  0001 C CNN
F 1 "VSSA" H 9818 10923 50  0000 C CNN
F 2 "" H 9800 10750 50  0001 C CNN
F 3 "" H 9800 10750 50  0001 C CNN
	1    9800 10750
	-1   0    0    1   
$EndComp
Wire Wire Line
	9700 10650 9800 10650
Wire Wire Line
	9800 10650 9800 10750
$Comp
L power:GNDA #PWR0157
U 1 1 5DBE781F
P 9800 10450
F 0 "#PWR0157" H 9800 10200 50  0001 C CNN
F 1 "GNDA" H 9800 10300 50  0000 C CNN
F 2 "" H 9800 10450 50  0001 C CNN
F 3 "" H 9800 10450 50  0001 C CNN
	1    9800 10450
	1    0    0    -1  
$EndComp
Wire Wire Line
	9300 10350 9800 10350
Wire Wire Line
	9800 10350 9800 10450
Wire Wire Line
	10200 10750 10200 10650
Wire Wire Line
	10200 10350 10200 10250
Wire Wire Line
	10700 10750 10700 10550
Wire Wire Line
	10200 10250 10400 10250
Wire Wire Line
	10200 10250 9800 10250
Connection ~ 10200 10250
$Comp
L Device:CP C23
U 1 1 5DFDC31A
P 11100 10500
F 0 "C23" H 11218 10546 50  0000 L CNN
F 1 "CP" H 11218 10455 50  0000 L CNN
F 2 "Capacitor_THT:CP_Radial_D8.0mm_P5.00mm" H 11138 10350 50  0001 C CNN
F 3 "~" H 11100 10500 50  0001 C CNN
	1    11100 10500
	1    0    0    -1  
$EndComp
Wire Wire Line
	10700 10750 11100 10750
Connection ~ 10700 10750
Wire Wire Line
	11000 10250 11100 10250
Wire Wire Line
	11100 10250 11100 10350
Wire Wire Line
	11100 10650 11100 10750
Wire Wire Line
	11300 10250 11300 10150
Connection ~ 11100 10250
$Comp
L power:VCC #PWR0158
U 1 1 5E17D3D2
P 11300 10150
F 0 "#PWR0158" H 11300 10000 50  0001 C CNN
F 1 "VCC" H 11317 10323 50  0000 C CNN
F 2 "" H 11300 10150 50  0001 C CNN
F 3 "" H 11300 10150 50  0001 C CNN
	1    11300 10150
	1    0    0    -1  
$EndComp
Wire Wire Line
	10000 10750 10000 10350
Connection ~ 9800 10250
Wire Wire Line
	10500 10750 10700 10750
Wire Wire Line
	10000 10750 10200 10750
Wire Wire Line
	10200 10750 10250 10750
Connection ~ 10200 10750
Wire Wire Line
	10450 10750 10500 10750
Connection ~ 10500 10750
Wire Wire Line
	10000 10350 9800 10350
Connection ~ 9800 10350
$Comp
L Connector_Generic:Conn_01x02 J8
U 1 1 5EA2E5E4
P 11650 10250
F 0 "J8" H 11650 10350 50  0000 L CNN
F 1 "Conn_01x02" H 11500 10050 50  0000 L CNN
F 2 "Connector_PinHeader_2.54mm:PinHeader_1x02_P2.54mm_Vertical" H 11650 10250 50  0001 C CNN
F 3 "~" H 11650 10250 50  0001 C CNN
	1    11650 10250
	1    0    0    -1  
$EndComp
Wire Wire Line
	11450 10250 11300 10250
Wire Wire Line
	11450 10350 11450 10750
Wire Wire Line
	11450 10750 11100 10750
Connection ~ 11100 10750
Connection ~ 11300 10250
Wire Wire Line
	11100 10250 11300 10250
$Comp
L Connector_Generic:Conn_01x03 J9
U 1 1 5BF2471B
P 8100 10450
F 0 "J9" H 8020 10125 50  0000 C CNN
F 1 "Conn_01x03" H 8020 10216 50  0000 C CNN
F 2 "Connector_PinHeader_2.54mm:PinHeader_1x03_P2.54mm_Vertical" H 8100 10450 50  0001 C CNN
F 3 "~" H 8100 10450 50  0001 C CNN
	1    8100 10450
	-1   0    0    1   
$EndComp
Wire Wire Line
	8300 10350 8450 10350
Wire Wire Line
	8450 10350 8450 10250
$Comp
L power:VDDA #PWR0159
U 1 1 5BFFC0DB
P 8450 10250
F 0 "#PWR0159" H 8450 10100 50  0001 C CNN
F 1 "VDDA" H 8467 10423 50  0000 C CNN
F 2 "" H 8450 10250 50  0001 C CNN
F 3 "" H 8450 10250 50  0001 C CNN
	1    8450 10250
	1    0    0    -1  
$EndComp
Wire Wire Line
	8300 10550 8450 10550
Wire Wire Line
	8450 10550 8450 10650
$Comp
L power:VSSA #PWR0160
U 1 1 5C068668
P 8450 10650
F 0 "#PWR0160" H 8450 10500 50  0001 C CNN
F 1 "VSSA" H 8468 10823 50  0000 C CNN
F 2 "" H 8450 10650 50  0001 C CNN
F 3 "" H 8450 10650 50  0001 C CNN
	1    8450 10650
	-1   0    0    1   
$EndComp
$Comp
L power:GNDA #PWR0161
U 1 1 5C141B4B
P 8650 10650
F 0 "#PWR0161" H 8650 10400 50  0001 C CNN
F 1 "GNDA" H 8655 10477 50  0000 C CNN
F 2 "" H 8650 10650 50  0001 C CNN
F 3 "" H 8650 10650 50  0001 C CNN
	1    8650 10650
	1    0    0    -1  
$EndComp
Wire Wire Line
	8650 10450 8650 10650
Wire Wire Line
	8300 10450 8650 10450
$EndSCHEMATC
